1. Sentence	Head	Text	Context
2	11 (gov)	Aragorn	
18	8	Aragorn	
45	2	Aragorn	
75	18	Aragorn	
87	13	Aragorn	
90	16	Aragorn	
96	16	Aragorn	
97	6	Aragorn	
115	19	Aragorn	
116	14	Aragorn	
131	2	Aragorn	
156	9	Aragorn	
159	1	Aragorn	
170	25	Aragorn	
208	2	Aragorn	
215	10	Aragorn	
222	2	Aragorn	
228	20	Aragorn	
234	5	Aragorn	
289	10	Aragorn	
351	14	Aragorn	
352	4	Aragorn	
367	2	Aragorn	
520	2	Aragorn	
531	2	Aragorn	
652	8	Aragorn	
654	11	Aragorn	
2. Sentence	Head	Text	Context
351	18 (gov)	an Elf-friend of the folk of Westernesse	
2	1	I	
6	2	I	
7	3	I	
32	1	I	
34	4	I	
34	7	I	
35	3	I that must hasten away	
35	10	he that must remain	
43	1	I	
49	3	me	
51	1	I	
77	2	I	
77	15	I	
81	10	my	
86	1	My	
86	7	I	
87	1	My	
98	1	I	
100	16	I	
105	2	I	
105	6	I	
122	6	I	
125	18	I	
125	28	I	
126	14	I	
128	1	I	
129	2	I	
133	1	I	
138	3	my	
145	1	I	
149	1	I	
151	1	I	
152	1	I	
162	1	My	
177	8	my	
190	1	I	
191	1	I	
191	3	I	
191	8	I	
191	10	I	
192	1	I	
194	1	I	
209	2	I	
213	7	my	
225	2	my	
235	2	me	
243	1	I	
243	4	my	
245	2	me	
258	1	I	
274	1	I	
275	8	I	
278	1	I	
295	1	I	
296	1	I	
296	22	me	
297	16	I	
298	1	I	
300	1	I	
323	3	my	
323	12	I	
323	33	my	
324	4	me	
341	1	I	
342	3	my	
343	1	My	
351	1	Myself	
361	1	I	
395	1	I	
395	5	I	
395	15	I	
396	2	I	
396	11	I	
396	18	I	
397	8	I	
397	16	my	
439	8	I	
441	6	I	
442	16	I	
443	1	I	
443	7	I	
473	2	me	
475	1	I	
486	2	my	
488	3	my	
494	5	I	
497	6	my	
498	1	I	
499	2	I	
499	5	no spy	
500	1	My	
502	1	I	
502	16	my	
503	1	I	
505	1	I	
506	1	I	
509	1	I	
509	11	I	
509	17	my	
509	22	I	
509	32	I	
521	2	I	
521	14	I	
528	2	I	
528	12	my	
529	1	I	
534	1	I	
536	1	I	
539	12	I	
549	15	I	
551	6	my	
554	8	my	
556	1	I	
557	1	I	
558	1	I	
558	7	my	
559	3	I	
559	13	I	
559	17	I	
564	2	I	
565	5	I	
566	5	I	
587	8	me	
619	1	I	
619	19	I	
620	1	I	
620	5	I	
620	14	my	
624	8	me	
657	15	my	
657	40	me	
3. Sentence	Head	Text	Context
3	1 (gov)	He	
3	9	his	
5	1	he	
4. Sentence	Head	Text	Context
279	31 (gov)	the White Mountains	
3	5	the mountains	
16	17	the mountains , above which three white peaks were shining : Celebdil , Fanuidhol , Caradhras , the Mountains of Moria	
16	17	the mountains	
16	34	the Mountains of Moria	
23	9	the mountains	
236	31	the mountains	
264	24	the mountains	
276	28	the mountains	
370	29	the mountains	
483	24	the mountains	
584	19	the mountains	
5. Sentence	Head	Text	Context
3	10 (gov)	his sword	
428	8	his sword	
6. Sentence	Head	Text	Context
4	3 (gov)	Gandalf	
77	10	Gandalf	
146	6	Gandalf	
7. Sentence	Head	Text	Context
4	1 (gov)	Farewell	
66	1	Farewell	
458	1	Farewell , sweet Nimrodel !	
458	1	Farewell	
461	1	Farewell	
462	1	It	
462	20	its	
8. Sentence	Head	Text	Context
6	14 (gov)	Moria	
16	36	Moria	
93	16	Moria	
102	18	Moria	
178	16	Moria	
192	11	Moria	
225	10	Moria	
370	22	Moria , along the	
370	22	Moria	
372	7	Moria	
583	24	Moria	
9. Sentence	Head	Text	Context
500	14 (gov)	the Enemy	
546	51	the Enemy	
10. Sentence	Head	Text	Context
501	3 (gov)	we	
504	4	our	
11. Sentence	Head	Text	Context
8	4 (gov)	we	
10	1	We	
11	3	we	
12	2	us	
12	4	ourselves	
14	1	We	
12. Sentence	Head	Text	Context
9	1 (gov)	He	
10	7	he	
13. Sentence	Head	Text	Context
9	5 (gov)	the Company	
36	2	The Company	
164	7	the Company	
170	28	the Company	
224	6	this Company	
292	2	The Company	
481	10	the Company	
521	8	this Company	
524	7	it	
532	3	the Company	
569	7	the Company	
578	5	the Company	
589	15	your Company	
14. Sentence	Head	Text	Context
504	5 (gov)	our law	
504	2	this	
505	8	the law	
505	14	it	
15. Sentence	Head	Text	Context
12	7 (gov)	no	
15	1	They	
15	6	them	
130	1	No	
396	22	no	
477	1	No	
480	4	them	
16. Sentence	Head	Text	Context
16	12 (gov)	two	
115	5	two	
116	9	it	
116	22	it	
187	3	two	
188	3	it	
351	7	two	
400	9	two	
435	12	two	
479	3	two	
489	24	two of them	
599	10	two	
649	9	two	
17. Sentence	Head	Text	Context
170	32 (gov)	nearly three	
16	21	three	
330	16	three	
448	2	The three of us	
18. Sentence	Head	Text	Context
16	3 (gov)	the dale	
25	25	the dale	
43	18	the dale	
70	19	the dale	
19. Sentence	Head	Text	Context
16	8 (gov)	a glen of shadows	
17	6	the glen	
20. Sentence	Head	Text	Context
508	17 (gov)	his axe	
515	4	his axe	
21. Sentence	Head	Text	Context
16	23 (gov)	three white peaks	
16	25	shining : Celebdil , Fanuidhol , Caradhras , the Mountains of Moria	
22. Sentence	Head	Text	Context
509	19 (gov)	my own land	
551	7	my land	
558	9	my own land	
23. Sentence	Head	Text	Context
17	3 (gov)	the head of the glen	
92	11	his head	
303	20	his head	
24. Sentence	Head	Text	Context
17	8 (gov)	a torrent	
19	9	the torrent	
25. Sentence	Head	Text	Context
511	14 (gov)	the Lord and the Lady	
512	1	They	
512	16	they	
549	9	the Lord and Lady	
587	13	the Lord and Lady	
26. Sentence	Head	Text	Context
17	34 (gov)	the mountains feet	
168	4	their feet	
184	25	feet	
191	5	feet	
243	5	my feet	
570	7	their feet	
27. Sentence	Head	Text	Context
18	5 (gov)	the Dimrill Stair	
18	1	Yonder	
344	25	the Dimrill Stair	
28. Sentence	Head	Text	Context
18	12 (gov)	the falls	
24	2	the	
25	11	them	
25	14	they	
156	11	the	
252	25	the	
253	8	they	
253	21	them	
254	8	they	
263	2	the	
280	13	the	
280	23	the	
283	19	the falls	
284	2	they	
285	3	their	
293	4	the	
293	8	they	
294	1	Their	
294	11	their	
297	2	they	
298	7	their	
299	9	they	
299	16	they	
402	17	the falls	
408	11	the	
29. Sentence	Head	Text	Context
20	7 (gov)	Gimli	
21	2	he	
22	1	He	
22	3	his	
31	2	Gimli	
32	4	he	
42	2	Gimli	
54	5	Gimli	
64	2	Gimli	
72	12	Gimli	
115	2	Gimli	
123	4	Gimli	
124	1	He	
124	3	his	
142	18	Gimli	
174	1	Gimli	
175	3	Gimli	
176	8	he	
193	1	Gimli	
212	13	Gimli	
277	11	Gimli	
287	22	Gimli	
288	1	He	
289	7	Gimli	
494	12	Gimli	
496	10	Gimli	
497	9	he	
507	1	Gimli	
508	1	He	
508	3	his	
508	10	his	
508	16	his	
509	7	he	
515	1	Gimli	
515	3	his	
515	6	his	
516	3	his	
525	1	Gimli	
534	22	Gimli	
534	29	his	
588	11	Gimli	
591	7	Gimli	
30. Sentence	Head	Text	Context
20	2 (gov)	Caradhras less cruel	
23	23	them	
31. Sentence	Head	Text	Context
513	16 (gov)	secret sentinels	
514	8	them	
32. Sentence	Head	Text	Context
46	2 (gov)	The Sun	
21	7	the sun	
48	8	it	
93	6	the shining sun	
114	3	the sun	
167	8	the sun	
539	19	the sun	
564	26	the Sun	
574	4	the sun	
581	18	the shining Sun	
33. Sentence	Head	Text	Context
22	11 (gov)	the snow-capped peaks	
60	19	the peaks	
34. Sentence	Head	Text	Context
453	6 (gov)	the East	
23	3	the east	
35. Sentence	Head	Text	Context
23	14 (gov)	a sudden end	
468	20	the end	
36. Sentence	Head	Text	Context
516	1 (gov)	Haldir and his companion	
516	6	their	
37. Sentence	Head	Text	Context
25	4 (gov)	a mile	
236	8	a mile	
237	3	it	
38. Sentence	Head	Text	Context
25	9 (gov)	a little	
104	15	a little	
325	8	a little	
39. Sentence	Head	Text	Context
25	30 (gov)	a mere	
71	5	the mere	
40. Sentence	Head	Text	Context
26	12 (gov)	a great spear-head thrust deep into the northern glen	
26	20	its	
27	2	its	
28	1	Its	
41. Sentence	Head	Text	Context
26	30 (gov)	the sunlit sky	
61	17	the sky	
573	33	the sky	
42. Sentence	Head	Text	Context
523	1 (gov)	We	
524	1	That	
526	6	we	
527	4	us	
530	3	us	
533	4	our	
534	18	us	
43. Sentence	Head	Text	Context
27	3 (gov)	its waters	
238	4	waters	
495	27	the waters	
44. Sentence	Head	Text	Context
28	2 (gov)	Its face	
29	2	it	
29	14	its	
45. Sentence	Head	Text	Context
56	12 (gov)	the Mirrormere	
30	4	the Mirrormere	
40	11	Mirrormere	
56	12	Mirrormere	
46. Sentence	Head	Text	Context
32	10 (gov)	joy of the sight	
34	9	joy again	
47. Sentence	Head	Text	Context
528	11 (gov)	Legolas here shares my blindness	
528	5	content	
48. Sentence	Head	Text	Context
34	6 (gov)	journey ere I have joy again	
35	1	It	
49. Sentence	Head	Text	Context
529	7 (gov)	a kinsman	
529	16	his	
50. Sentence	Head	Text	Context
36	7 (gov)	the road	
50	8	the road	
67	16	the road	
70	2	The road	
76	2	Our road	
76	5	it	
77	8	the road that Gandalf chose	
166	11	the road	
174	21	the road	
184	12	the road	
185	5	it	
452	6	the road	
452	11	it	
51. Sentence	Head	Text	Context
210	11 (gov)	the Gates	
36	10	the Gates	
45	8	the Gates	
113	20	the Gates	
210	11	Gates	
52. Sentence	Head	Text	Context
39	11 (gov)	the path	
217	25	the path	
238	8	the path	
292	8	the path	
463	6	the path that still went on along the west side of the Silverlode	
475	5	this path	
53. Sentence	Head	Text	Context
39	27 (gov)	the wind	
93	8	the wind	
176	6	the wind	
178	1	It	
179	3	that	
179	7	their purpose	
262	21	the wind	
271	2	The wind	
280	7	the wind	
281	4	the wind	
393	34	the wind	
407	2	The wind	
54. Sentence	Head	Text	Context
41	4 (gov)	Durin s Stone	
40	5	them	
41	1	That	
333	14	s	
55. Sentence	Head	Text	Context
539	7 (gov)	one	
540	2	it	
56. Sentence	Head	Text	Context
47	2 (gov)	The Orcs	
178	8	the Orcs	
179	6	their	
179	10	they	
180	2	Orcs	
180	15	they	
302	15	Orcs	
418	1	Orcs	
420	3	they	
426	1	Orcs	
426	16	they	
444	5	Orcs	
445	1	They	
445	6	their	
447	1	They	
447	10	they	
448	22	them	
450	4	the Orcs	
57. Sentence	Head	Text	Context
456	12 (gov)	the flet Frodo	
49	5	Frodo	
53	1	Frodo	
55	1	It	
55	12	its	
90	4	Frodo	
95	1	Frodo	
98	5	Frodo	
115	23	Frodo	
127	7	Frodo	
128	7	Frodo , reluctant to have his garments touched	
128	7	Frodo	
134	5	Frodo	
153	9	Frodo	
155	1	Frodo	
158	2	Frodo	
170	3	Frodo	
171	1	It	
174	3	Frodo	
181	1	Frodo	
190	7	Frodo	
251	4	Frodo	
255	2	Almost Frodo	
312	1	Frodo	
324	8	Frodo	
327	7	Frodo	
330	2	Frodo	
333	8	Frodo	
335	1	Frodo	
362	22	Frodo	
398	1	Frodo	
402	23	Frodo	
412	1	Frodo	
412	9	it	
414	3	it	
415	2	Frodo	
419	2	Frodo	
424	1	Frodo	
428	17	Frodo	
435	10	Frodo	
460	1	Frodo	
571	6	Frodo	
581	7	Frodo	
596	9	Frodo	
609	12	Frodo	
626	26	Frodo	
627	14	Frodo	
630	1	Frodo	
632	2	Frodo	
637	1	Frodo	
638	3	it	
638	5	it	
652	6	Frodo	
653	11	Frodo	
654	38	Frodo	
656	20	Frodo	
658	3	Frodo	
58. Sentence	Head	Text	Context
522	6 (gov)	the Dwarf	
50	3	the dwarf	
52	1	He	
56	16	the dwarf	
189	3	the dwarf	
355	5	a dwarf	
59. Sentence	Head	Text	Context
542	8 (gov)	we	
542	23	we	
542	27	our	
542	31	our	
543	1	We	
543	12	our	
544	5	us	
544	24	us	
546	30	we	
547	3	we	
547	13	we	
550	12	us	
60. Sentence	Head	Text	Context
53	18 (gov)	Sam	
69	4	Sam	
69	7	Sam	
90	6	Sam	
92	1	Sam	
92	10	his	
94	1	He	
95	8	he	
100	25	Sam	
115	21	Sam	
116	1	Sam	
116	20	he	
117	4	he	
118	4	Sam	
119	1	he	
170	1	Sam	
317	6	Sam	
320	1	Sam	
320	4	his	
320	7	his	
333	13	Sam	
396	9	Sam	
399	1	Sam	
399	5	his	
399	9	he	
399	10	himself	
399	12	his	
400	1	He	
401	9	his	
483	1	Sam	
484	1	He	
484	6	he	
617	6	Sam	
617	11	him	
617	22	his	
617	26	he	
617	31	he	
61. Sentence	Head	Text	Context
55	13 (gov)	its side	
159	10	his side	
399	6	his side	
62. Sentence	Head	Text	Context
56	7 (gov)	Durin	
65	6	Durin	
65	8	he	
67	1	He	
595	22	Durin	
596	2	his	
596	14	his	
63. Sentence	Head	Text	Context
56	8 (gov)	first	
59	2	first	
77	14	first	
120	14	first	
192	9	first	
591	5	first	
595	10	first	
612	22	first	
613	32	first	
635	4	first	
64. Sentence	Head	Text	Context
57	2 (gov)	us	
57	4	ourselves	
65. Sentence	Head	Text	Context
545	1 (gov)	Some	
545	9	it	
66. Sentence	Head	Text	Context
58	1 (gov)	They	
59	3	they	
60	3	they	
60	27	them	
67. Sentence	Head	Text	Context
61	1 (gov)	There like jewels	
62	2	their	
68. Sentence	Head	Text	Context
547	8 (gov)	the shores of the Sea	
552	9	the shores of the sea	
69. Sentence	Head	Text	Context
61	10 (gov)	stars	
137	18	stars	
601	24	stars	
70. Sentence	Head	Text	Context
555	5 (gov)	these havens	
548	8	havens of the High Elves	
71. Sentence	Head	Text	Context
548	12 (gov)	the High Elves	
548	15	they	
72. Sentence	Head	Text	Context
62	7 (gov)	no shadow	
577	39	no shadow	
73. Sentence	Head	Text	Context
69	2 (gov)	Pippin to Sam	
299	7	Pippin	
380	19	Pippin	
394	1	Pippin	
482	4	Pippin	
482	9	he	
482	14	he	
482	26	he	
482	28	his	
74. Sentence	Head	Text	Context
70	16 (gov)	the arms of the dale	
400	15	their arms	
75. Sentence	Head	Text	Context
72	4 (gov)	the spring from which the Silverlode rises	
72	1	Here	
73	5	it	
74	1	It	
74	4	icy cold	
75	2	it	
75	9	it	
86	2	My heart	
86	17	it	
87	2	My heart	
88	2	it	
140	1	Here	
141	2	it	
162	2	My heart	
163	4	it	
239	1	Here	
269	21	spring	
614	12	spring	
657	1	Here	
657	4	the heart of Elvendom on earth	
76. Sentence	Head	Text	Context
554	17 (gov)	we	
555	7	we	
77. Sentence	Head	Text	Context
108	23 (gov)	the hurrying Silverlode	
72	8	the Silverlode	
77	24	the Silverlode	
78	1	They	
78	9	them	
78	10	they	
238	15	the Silverlode	
281	23	Silverlode , that Elves call Celebrant , and Celebrant into Anduin the Great	
281	23	Silverlode	
292	26	Silverlode	
463	17	the Silverlode	
463	17	Silverlode	
489	15	the Silverlode	
489	15	Silverlode	
491	39	Silverlode and Anduin the Great	
491	39	Silverlode	
575	12	Silverlode	
640	19	Anduin	
78. Sentence	Head	Text	Context
559	9 (gov)	the world outside	
559	25	it	
577	21	the world outside	
79. Sentence	Head	Text	Context
77	21 (gov)	the woods	
214	16	the woods	
286	5	the woods	
80. Sentence	Head	Text	Context
77	29 (gov)	the Great River	
230	31	the Great River	
253	46	the Great River	
446	10	the river	
465	16	the river	
474	22	the river	
546	46	the Great River	
573	16	the river	
640	23	the Great River	
641	7	the river	
642	3	the river	
642	18	it	
81. Sentence	Head	Text	Context
563	1 (gov)	Some	
563	5	us who sing that the Shadow will draw back	
82. Sentence	Head	Text	Context
78	14 (gov)	the stream	
111	12	the stream	
244	14	the stream	
258	19	the stream	
288	5	the stream	
293	20	the stream	
466	10	the stream	
468	6	the stream	
468	16	it	
469	17	it	
83. Sentence	Head	Text	Context
78	19 (gov)	the trough of the valley	
78	36	it	
84. Sentence	Head	Text	Context
78	22 (gov)	the valley	
198	7	the valley	
85. Sentence	Head	Text	Context
627	33 (gov)	fair Lothlorien	
79	6	Lothlorien	
200	1	Lothlorien	
202	1	Lothlorien	
207	1	Lothlorien	
229	24	Lothlorien	
253	24	Lothlorien	
269	24	fair Lothlorien	
276	14	Lothlorien	
367	24	Lothlorien	
542	15	Lothlorien	
560	6	fair Lothlorien	
566	3	Lothlorien	
567	1	It	
567	6	a poor life in a land	
632	43	the life	
643	6	Lothlorien	
86. Sentence	Head	Text	Context
79	4 (gov)	the woods of Lothlorien	
81	1	That	
81	4	the fairest of all the dwellings of my people	
87. Sentence	Head	Text	Context
80	2 (gov)	Legolas	
96	3	Legolas	
96	13	he	
201	2	Legolas	
213	25	Legolas	
240	2	Legolas	
250	9	Legolas	
251	15	his	
252	12	he	
252	19	his	
252	22	he	
252	35	his	
253	19	Legolas	
255	5	he	
257	2	Legolas	
273	4	Legolas	
274	8	he	
278	11	Legolas	
295	7	Legolas	
301	10	Legolas	
303	1	He	
303	19	his	
304	4	he	
304	19	him	
306	8	Legolas	
307	1	He	
309	1	he	
313	1	Legolas	
319	8	Legolas	
327	1	Legolas	
350	4	Legolas	
355	8	Legolas	
367	4	Legolas	
367	7	him	
367	12	him	
367	14	he	
367	19	he	
377	3	Legolas	
380	1	Legolas	
402	30	Legolas	
402	33	his	
403	5	he	
459	2	Legolas	
461	3	he	
462	4	him	
462	6	he	
475	8	Legolas	
502	10	Legolas	
518	2	Legolas	
523	8	Legolas	
528	9	Legolas	
529	11	Legolas	
538	2	Legolas	
88. Sentence	Head	Text	Context
81	11 (gov)	my people	
83	5	their	
84	12	they	
89. Sentence	Head	Text	Context
82	4 (gov)	no trees like the trees of that land	
84	52	the trees	
205	5	the trees	
209	11	the trees	
217	11	the trees	
283	37	the trees	
285	6	the trees	
287	10	the trees	
425	19	the trees	
465	8	the trees	
572	5	the trees	
601	6	the trees	
603	24	the trees	
645	13	the trees	
90. Sentence	Head	Text	Context
83	6 (gov)	their leaves	
124	10	leaves	
199	16	leaves	
260	14	the leaves above them	
385	15	leaves	
91. Sentence	Head	Text	Context
565	30 (gov)	ever	
657	18	ever	
92. Sentence	Head	Text	Context
84	4 (gov)	the spring	
84	41	its	
280	4	the spring when the wind is in the new leaves the echo of her voice	
93. Sentence	Head	Text	Context
84	18 (gov)	the boughs	
402	9	the boughs	
94. Sentence	Head	Text	Context
84	30 (gov)	the wood	
86	14	that wood	
215	5	the wood	
410	16	the wood	
448	26	the wood	
569	15	the wood , led by Haldir	
569	15	the wood	
95. Sentence	Head	Text	Context
568	9 (gov)	Great Sea	
568	14	it	
96. Sentence	Head	Text	Context
84	38 (gov)	the roof	
84	35	golden	
269	16	golden	
97. Sentence	Head	Text	Context
568	5 (gov)	mallorn-trees beyond the Great Sea	
569	2	they	
570	1	They	
570	6	their	
570	16	they	
98. Sentence	Head	Text	Context
85	6 (gov)	Mirkwood	
253	29	Mirkwood	
99. Sentence	Head	Text	Context
87	10 (gov)	the winter	
204	3	it	
204	5	winter	
387	8	winter	
614	2	winter	
100. Sentence	Head	Text	Context
571	8 (gov)	his	
572	1	He	
573	1	He	
573	20	his	
574	1	He	
574	6	his	
575	4	he	
575	19	him	
575	25	he	
575	35	him	
575	37	he	
101. Sentence	Head	Text	Context
572	9 (gov)	the trodden grass	
601	15	the grass	
602	29	the grass	
102. Sentence	Head	Text	Context
90	4 (gov)	Frodo and Sam	
90	19	them	
90	29	they	
91	1	They	
115	21	Sam and Frodo	
174	1	Gimli and Frodo	
103. Sentence	Head	Text	Context
90	13 (gov)	the others	
97	2	The others	
156	3	the others	
197	2	The others	
309	5	the others	
311	9	their	
312	23	themselves	
325	2	The others	
325	3	they	
325	22	they	
376	3	the others	
377	1	You , Legolas	
377	10	them	
475	12	the others	
476	2	they	
495	2	The others	
609	2	The others	
609	4	themselves	
612	19	they	
612	37	they	
104. Sentence	Head	Text	Context
121	2 (gov)	The cut	
92	3	cut was burning like fire	
122	1	It	
122	9	it	
123	2	it	
105. Sentence	Head	Text	Context
626	24 (gov)	his face	
574	7	his face and hands	
106. Sentence	Head	Text	Context
93	14 (gov)	the warm darkness of Moria	
649	36	the darkness	
107. Sentence	Head	Text	Context
575	10 (gov)	the far bank of Silverlode	
575	22	it	
575	32	it	
108. Sentence	Head	Text	Context
96	2 (gov)	last	
330	5	last	
365	7	last	
634	6	last	
109. Sentence	Head	Text	Context
97	12 (gov)	Boromir	
97	16	him	
99	1	he	
106	3	Boromir	
218	6	Boromir	
223	15	Boromir	
229	7	Boromir	
232	2	Boromir	
110. Sentence	Head	Text	Context
100	6 (gov)	this day	
260	31	day	
453	1	Day	
578	3	that day	
595	24	Day	
111. Sentence	Head	Text	Context
100	8 (gov)	we	
102	1	We	
102	10	we	
102	21	us	
104	10	we	
107	1	We	
112. Sentence	Head	Text	Context
576	14 (gov)	the ancient things	
576	8	ancient things	
653	20	things	
113. Sentence	Head	Text	Context
104	3 (gov)	A little further on there	
104	8	a place where we can rest for a little	
114. Sentence	Head	Text	Context
577	35 (gov)	the land of Lorien	
616	3	the land of Lorien	
115. Sentence	Head	Text	Context
107	4 (gov)	them	
108	3	they	
109	2	they	
116. Sentence	Head	Text	Context
108	7 (gov)	another stream	
108	8	that	
108	17	its	
117. Sentence	Head	Text	Context
579	14 (gov)	their guides	
579	18	them	
579	21	their	
118. Sentence	Head	Text	Context
312	29 (gov)	the West	
108	13	the west	
272	4	the West	
351	23	Westernesse	
546	5	the west	
119. Sentence	Head	Text	Context
108	19 (gov)	its bubbling water	
126	5	the water	
243	13	the water	
247	2	The water	
255	18	the water	
120. Sentence	Head	Text	Context
109	6 (gov)	a fall of green-hued stone	
110	2	it	
110	11	its	
121. Sentence	Head	Text	Context
109	16 (gov)	a dell	
157	6	the dell	
166	6	the dell	
122. Sentence	Head	Text	Context
110	4 (gov)	fir-trees	
112	2	they	
113	11	they	
123. Sentence	Head	Text	Context
582	2 (gov)	he	
582	11	him	
124. Sentence	Head	Text	Context
111	3 (gov)	the bottom	
113	1	It	
125. Sentence	Head	Text	Context
113	8 (gov)	noon	
581	2	noon	
126. Sentence	Head	Text	Context
115	10 (gov)	a fire of brush-and fir-wood	
165	5	the fire	
165	11	it	
127. Sentence	Head	Text	Context
585	25 (gov)	yet not of beast-shape	
586	7	they	
587	6	they	
128. Sentence	Head	Text	Context
126	10 (gov)	the wound	
116	3	wound was not deep	
129. Sentence	Head	Text	Context
117	3 (gov)	a moment	
187	13	a moment	
251	3	a moment	
252	1	It	
252	5	its	
304	9	a moment	
306	1	it	
613	31	that moment	
130. Sentence	Head	Text	Context
120	1 (gov)	Many	
120	13	their	
131. Sentence	Head	Text	Context
120	15 (gov)	their first orc	
440	5	an orc	
132. Sentence	Head	Text	Context
589	12 (gov)	each member of your Company	
591	1	He	
593	1	he	
133. Sentence	Head	Text	Context
124	8 (gov)	some withered leaves	
125	1	They	
125	8	their	
134. Sentence	Head	Text	Context
125	6 (gov)	some of their virtue	
125	13	he	
128	12	his	
135. Sentence	Head	Text	Context
595	11 (gov)	the first dwarf to behold the trees of the Naith of Lorien since Durin s Day	
595	7	you	
136. Sentence	Head	Text	Context
126	2 (gov)	one	
126	17	it	
127	2	it	
127	5	your turn , Frodo	
127	5	your turn	
529	17	his turn	
137. Sentence	Head	Text	Context
597	1 (gov)	They	
599	29	their	
602	2	them	
602	18	they	
138. Sentence	Head	Text	Context
598	3 (gov)	the left	
599	2	it	
139. Sentence	Head	Text	Context
129	6 (gov)	some food	
156	6	the food	
140. Sentence	Head	Text	Context
599	34 (gov)	the inner	
599	36	mallorn-trees of great height , still arrayed in pale gold	
141. Sentence	Head	Text	Context
134	2 (gov)	he	
135	2	he	
142. Sentence	Head	Text	Context
134	15 (gov)	a	
517	1	A	
517	6	their	
530	6	a	
143. Sentence	Head	Text	Context
136	3 (gov)	The silver corslet	
136	6	his	
137	2	he	
139	1	he	
144. Sentence	Head	Text	Context
136	7 (gov)	his eyes	
191	15	eyes	
399	13	his eyes	
482	29	his eyes	
534	30	his eyes	
579	22	their eyes	
591	9	eyes	
596	3	his eyes	
612	31	his eyes	
617	23	his eyes	
641	4	his eyes	
652	36	his eyes	
145. Sentence	Head	Text	Context
136	10 (gov)	the light	
137	4	it	
137	8	it	
137	15	it	
334	6	the light	
454	3	the light	
454	5	it	
454	16	it	
649	29	the light	
146. Sentence	Head	Text	Context
137	26 (gov)	the shaken rings	
154	17	the rings	
147. Sentence	Head	Text	Context
138	4 (gov)	my friends	
491	3	friends	
148. Sentence	Head	Text	Context
141	6 (gov)	hobbits	
345	6	hobbits , of halflings	
345	6	hobbits	
391	1	Hobbits	
391	15	they	
392	8	their	
551	13	Hobbits	
149. Sentence	Head	Text	Context
614	5 (gov)	here no heart	
606	2	this	
606	5	the heart of the ancient realm	
606	11	it	
150. Sentence	Head	Text	Context
141	21 (gov)	the Shire	
551	10	the Shire	
551	10	Shire	
627	19	the Shire	
151. Sentence	Head	Text	Context
142	11 (gov)	the world	
143	1	It	
143	4	a mithril-coat	
253	49	the world	
562	2	The world	
562	11	it	
562	39	it	
564	8	the world about us	
564	16	it	
564	28	it	
565	8	it	
152. Sentence	Head	Text	Context
142	23 (gov)	the mail in wonder	
154	3	the mail	
160	2	The mail	
161	2	it	
161	10	it	
153. Sentence	Head	Text	Context
607	14 (gov)	the yellow elanor	
610	4	him	
610	6	he	
611	8	his	
612	3	he	
612	30	his	
613	1	He	
613	7	he	
613	27	he	
154. Sentence	Head	Text	Context
146	2 (gov)	this	
147	4	it	
148	2	it	
155. Sentence	Head	Text	Context
149	8 (gov)	Bilbo	
149	15	his	
151	3	him	
152	9	him	
155	11	he	
158	7	him	
158	10	his	
158	16	he	
159	9	his	
160	7	he	
156. Sentence	Head	Text	Context
149	20 (gov)	Merry	
316	2	Merry	
380	17	Merry	
383	2	Merry	
550	15	Merry	
556	6	Merry	
157. Sentence	Head	Text	Context
609	9 (gov)	the fragrant grass	
610	1	It	
158. Sentence	Head	Text	Context
149	17 (gov)	his little room	
152	11	it	
159. Sentence	Head	Text	Context
154	15 (gov)	one point	
154	22	it	
160. Sentence	Head	Text	Context
613	6 (gov)	those he knew	
613	19	they	
613	34	them	
613	38	them	
161. Sentence	Head	Text	Context
158	11 (gov)	his breath	
433	10	his breath	
434	9	its breath	
596	15	his breath	
162. Sentence	Head	Text	Context
158	23 (gov)	the touch for many days	
252	6	its touch	
252	16	it	
633	9	the touch of it	
163. Sentence	Head	Text	Context
158	26 (gov)	many days	
328	57	those days	
164. Sentence	Head	Text	Context
616	8 (gov)	no stain	
617	1	He	
618	11	he	
165. Sentence	Head	Text	Context
617	18 (gov)	a puzzled expression	
618	1	It	
166. Sentence	Head	Text	Context
619	16 (gov)	Elvish	
621	7	he	
622	1	He	
623	12	he	
654	33	Elvish	
167. Sentence	Head	Text	Context
163	21 (gov)	a while	
163	24	that	
394	7	a while	
495	8	a while	
168. Sentence	Head	Text	Context
164	2 (gov)	they	
165	1	They	
166	7	they	
167	1	They	
168	3	their	
169. Sentence	Head	Text	Context
656	16 (gov)	his thought	
621	16	both thought and word	
170. Sentence	Head	Text	Context
167	13 (gov)	the westward heights	
391	5	heights	
171. Sentence	Head	Text	Context
167	16 (gov)	great shadows crept down the mountain-sides	
184	5	the shadows	
254	19	the shadows	
326	4	the shadows	
172. Sentence	Head	Text	Context
623	4 (gov)	the power of the Lady of the Galadhrim	
624	2	it	
173. Sentence	Head	Text	Context
172	2 (gov)	Deep night	
205	3	the night	
299	22	night	
403	4	the night	
174. Sentence	Head	Text	Context
173	5 (gov)	many clear stars	
206	7	the stars	
398	13	the stars	
175. Sentence	Head	Text	Context
173	16 (gov)	late	
648	9	late	
176. Sentence	Head	Text	Context
627	28 (gov)	elanor and niphredil in fair Lothlorien	
628	1	They	
629	2	they	
177. Sentence	Head	Text	Context
178	14 (gov)	us	
179	17	us	
178. Sentence	Head	Text	Context
180	19 (gov)	a fallen captain	
182	1	He	
183	2	he	
183	9	he	
184	17	he	
185	3	he	
186	1	He	
187	14	he	
187	16	he	
179. Sentence	Head	Text	Context
182	4 (gov)	Sting	
427	4	Sting	
180. Sentence	Head	Text	Context
632	37 (gov)	a tree	
632	45	it	
652	16	a tree	
181. Sentence	Head	Text	Context
184	9 (gov)	them	
187	18	them	
187	23	they	
182. Sentence	Head	Text	Context
633	4 (gov)	a delight in wood	
633	11	it	
633	20	it	
633	23	the delight of the living tree itself	
633	28	itself	
183. Sentence	Head	Text	Context
191	13 (gov)	a light	
261	10	A light	
611	2	A light	
611	5	it	
652	32	a light	
657	24	a light	
184. Sentence	Head	Text	Context
637	9 (gov)	some distance	
637	26	it	
185. Sentence	Head	Text	Context
639	14 (gov)	the green city	
637	20	a city of green towers	
186. Sentence	Head	Text	Context
193	7 (gov)	the ground	
287	19	the ground	
301	7	the ground , said Legolas	
301	7	the ground	
301	13	that	
303	7	the ground	
369	8	the ground	
408	18	the ground below	
425	12	the ground	
447	13	the ground	
579	10	the ground	
585	18	the ground	
586	1	It	
586	11	it	
586	16	it	
586	23	it	
187. Sentence	Head	Text	Context
194	6 (gov)	the night-speech of plant and stone	
194	12	he	
188. Sentence	Head	Text	Context
198	2 (gov)	The night-wind	
198	10	them	
199	2	them	
199	10	they	
189. Sentence	Head	Text	Context
286	23 (gov)	the Shadow	
199	6	a wide grey shadow	
544	18	the Shadow	
563	10	the Shadow	
190. Sentence	Head	Text	Context
199	14 (gov)	an endless rustle of leaves	
260	11	the rustle of the leaves above them	
260	17	he	
573	9	the rustle of the leaves	
191. Sentence	Head	Text	Context
199	21 (gov)	the breeze	
456	31	the breeze	
192. Sentence	Head	Text	Context
203	10 (gov)	the Golden Wood	
226	8	the Golden Wood	
226	8	Golden Wood	
193. Sentence	Head	Text	Context
205	9 (gov)	them	
205	21	their	
206	8	their	
206	14	their quivering	
194. Sentence	Head	Text	Context
644	4 (gov)	the fastness of Southern Mirkwood	
645	1	It	
195. Sentence	Head	Text	Context
645	17 (gov)	another	
645	19	their	
196. Sentence	Head	Text	Context
210	1 (gov)	We	
210	14	we	
211	3	us	
211	13	us	
213	17	we	
213	28	we	
216	1	We	
216	5	ourselves	
217	1	We	
217	15	us	
217	19	we	
197. Sentence	Head	Text	Context
646	7 (gov)	a stony height	
647	5	it	
198. Sentence	Head	Text	Context
646	16 (gov)	the hidden Enemy	
646	18	his	
199. Sentence	Head	Text	Context
241	6 (gov)	the Silvan Elves	
211	10	the Elves	
241	17	them	
314	12	the Elves	
315	3	they	
315	8	they	
317	1	They	
317	3	Elves	
318	5	their	
319	3	they	
319	5	Elves , said Legolas	
319	5	Elves	
319	11	they	
319	19	they	
321	2	they	
322	1	They	
323	1	They	
323	22	they	
323	31	they	
324	2	they	
324	11	they	
328	60	the Elves	
364	2	The Elves	
364	13	their	
389	14	the Elves	
405	2	The Elves	
489	18	the Elves	
501	8	the Elves	
530	13	Elves	
565	3	the Elves	
565	18	they	
577	15	the Elves	
578	10	they	
579	2	they	
579	13	their	
579	25	they	
580	4	they	
581	3	they	
581	11	they	
583	5	Elves	
583	11	they	
583	27	they	
619	4	Elves	
621	4	them	
200. Sentence	Head	Text	Context
211	14 (gov)	tonight	
216	6	tonight	
348	6	tonight	
201. Sentence	Head	Text	Context
211	17 (gov)	the peril that comes behind	
372	10	the peril	
202. Sentence	Head	Text	Context
648	3 (gov)	A black cloud	
648	7	it of late	
203. Sentence	Head	Text	Context
212	10 (gov)	the darkening world	
213	1	It	
214	2	its	
204. Sentence	Head	Text	Context
213	31 (gov)	Lorien	
281	49	Lorien	
283	5	she	
283	31	Lorien	
344	17	Lorien	
352	11	Lorien	
450	10	Lorien	
491	14	Lorien	
576	11	Lorien	
577	37	Lorien	
595	20	Lorien	
616	5	Lorien	
640	11	Lorien	
205. Sentence	Head	Text	Context
649	4 (gov)	this high place you may see the two powers that are opposed one to another ; and ever they strive now in thought , but whereas the light perceives the very heart of the darkness	
649	38	its	
206. Sentence	Head	Text	Context
213	9 (gov)	my own folk	
214	3	its folk	
215	20	him	
218	1	He	
220	1	he	
500	2	My folk	
554	9	my folk	
555	2	me of these havens	
207. Sentence	Head	Text	Context
649	16 (gov)	another	
649	20	they	
651	9	they	
653	22	they	
208. Sentence	Head	Text	Context
213	20 (gov)	ages	
214	10	they	
215	6	they	
209. Sentence	Head	Text	Context
213	49 (gov)	the land	
267	6	the land	
347	34	our land	
360	7	our land	
491	29	the land that lies like a spearhead between the arms of Silverlode and Anduin the Great	
542	32	our land	
642	5	the land	
210. Sentence	Head	Text	Context
650	2 (gov)	yet	
651	1	He	
651	11	him	
652	20	his	
652	35	his	
653	1	He	
653	14	him	
653	15	he	
653	18	he	
654	14	he	
654	28	he	
211. Sentence	Head	Text	Context
214	22 (gov)	the northern border	
451	11	the northern border	
212. Sentence	Head	Text	Context
217	29 (gov)	a place to rest in	
447	19	the place	
213. Sentence	Head	Text	Context
219	5 (gov)	no other way	
230	10	no other way for us	
233	2	it	
214. Sentence	Head	Text	Context
401	2 (gov)	The other	
221	2	other fairer way	
480	7	the other	
215. Sentence	Head	Text	Context
223	3 (gov)	A plain road	
223	6	it	
216. Sentence	Head	Text	Context
224	3 (gov)	strange paths	
536	9	the paths	
569	12	the paths	
217. Sentence	Head	Text	Context
655	2 (gov)	Arwen vanimelda	
656	1	he	
656	6	he	
656	15	his	
656	17	he	
218. Sentence	Head	Text	Context
225	4 (gov)	we	
225	13	our	
226	3	we	
227	6	we	
230	12	us	
219. Sentence	Head	Text	Context
227	10 (gov)	Gondor	
229	5	Gondor	
220. Sentence	Head	Text	Context
227	5 (gov)	that perilous land	
227	13	it	
221. Sentence	Head	Text	Context
657	6 (gov)	Elvendom on earth	
657	10	he	
658	7	his	
658	9	he	
222. Sentence	Head	Text	Context
229	14 (gov)	those who once were wise	
229	19	they	
234	19	those who bring some evil with them	
236	1	They	
236	13	they	
237	1	They	
237	13	their	
238	10	them	
297	8	those that bear the yellow blossom	
223. Sentence	Head	Text	Context
234	1 (gov)	Perilous indeed	
234	16	it	
224. Sentence	Head	Text	Context
577	1 (gov)	Evil	
234	23	some evil	
277	8	the evil	
278	7	yet evil	
225. Sentence	Head	Text	Context
236	11 (gov)	the forest when they came upon another stream flowing down swiftly from the tree-clad slopes that climbed back westward towards the mountains	
338	19	the forest	
226. Sentence	Head	Text	Context
236	17 (gov)	another stream flowing down swiftly from the tree-clad slopes that climbed back westward towards the mountains	
241	3	this stream	
227. Sentence	Head	Text	Context
237	4 (gov)	it splashing	
238	1	Its	
228. Sentence	Head	Text	Context
237	11 (gov)	the shadows on their right	
465	19	their shadows	
229. Sentence	Head	Text	Context
237	14 (gov)	their right	
573	21	his right	
230. Sentence	Head	Text	Context
238	2 (gov)	Its dark hurrying waters	
319	25	the dark	
326	22	the dark	
433	6	the dark	
434	8	its	
642	25	dark	
231. Sentence	Head	Text	Context
296	15 (gov)	these trees	
238	26	trees	
293	13	trees , some of which overhung the stream	
293	13	trees	
296	6	trees	
442	13	trees	
599	13	trees	
232. Sentence	Head	Text	Context
258	10 (gov)	the maiden Nimrodel , who bore the same name as the stream beside which she lived long ago	
239	3	Nimrodel	
242	9	Nimrodel	
256	7	Nimrodel	
258	10	the maiden Nimrodel	
258	10	Nimrodel	
263	5	Nimrodel	
268	22	Nimrodel	
282	3	Nimrodel	
293	7	Nimrodel	
323	7	the Nimrodel	
323	7	Nimrodel	
402	20	Nimrodel below	
490	35	Nimrodel	
233. Sentence	Head	Text	Context
241	20 (gov)	the North	
241	26	its	
339	7	the North	
234. Sentence	Head	Text	Context
241	24 (gov)	the rainbow on its falls	
241	36	its	
235. Sentence	Head	Text	Context
241	37 (gov)	its foam	
271	10	The foam about him	
236. Sentence	Head	Text	Context
242	7 (gov)	the Bridge of Nimrodel	
243	8	it	
237. Sentence	Head	Text	Context
244	1 (gov)	He	
246	1	he	
238. Sentence	Head	Text	Context
248	2 (gov)	us	
249	5	we	
249	18	us	
239. Sentence	Head	Text	Context
249	11 (gov)	the sound of the falling water	
255	15	the sound of the water	
240. Sentence	Head	Text	Context
251	17 (gov)	his tired feet	
508	4	his feet	
241. Sentence	Head	Text	Context
252	20 (gov)	his knees	
400	18	their knees	
242. Sentence	Head	Text	Context
252	36 (gov)	his limbs	
262	7	her limbs	
243. Sentence	Head	Text	Context
253	27 (gov)	the Elves of Mirkwood	
253	33	their	
244. Sentence	Head	Text	Context
259	5 (gov)	a fair song in our woodland tongue	
258	6	a song of the maiden Nimrodel , who bore the same name as the stream beside which she lived long ago	
259	1	It	
273	9	the song	
323	34	my song	
245. Sentence	Head	Text	Context
259	25 (gov)	Rivendell	
542	20	Rivendell	
576	2	Rivendell	
590	6	Rivendell	
246. Sentence	Head	Text	Context
259	9 (gov)	our woodland tongue	
343	12	your tongue	
247. Sentence	Head	Text	Context
259	12 (gov)	this	
259	15	it	
248. Sentence	Head	Text	Context
259	23 (gov)	some in Rivendell	
259	28	it	
249. Sentence	Head	Text	Context
260	21 (gov)	An Elven-maid there was of old , A shining star by day	
260	33	Her	
260	41	Her	
261	6	her	
261	13	her	
262	1	Her	
262	6	her	
262	13	she	
262	22	she	
263	13	Her	
264	3	she	
250. Sentence	Head	Text	Context
260	29 (gov)	A shining star by day	
260	25	old , A shining star by day	
260	25	old	
564	19	old	
251. Sentence	Head	Text	Context
261	14 (gov)	her hair As sun upon the golden boughs In Lorien the fair	
262	2	Her hair	
252. Sentence	Head	Text	Context
270	20 (gov)	the water deep	
263	8	water clear and cool	
253. Sentence	Head	Text	Context
263	14 (gov)	Her voice as falling silver	
280	17	her voice	
254. Sentence	Head	Text	Context
265	2 (gov)	The elven-ship in haven grey	
265	10	her	
255. Sentence	Head	Text	Context
265	18 (gov)	the roaring sea	
281	17	the sea	
547	11	the Sea	
548	1	It	
549	3	that	
552	12	the sea	
554	13	it	
554	19	it	
256. Sentence	Head	Text	Context
266	8 (gov)	Arose	
266	12	it	
257. Sentence	Head	Text	Context
266	20 (gov)	elven-strands	
267	20	Their	
270	5	they	
271	16	they	
258. Sentence	Head	Text	Context
267	17 (gov)	the heaving waves	
267	18	that	
259. Sentence	Head	Text	Context
605	6 (gov)	Cerin Amroth	
268	1	Amroth	
268	19	Him	
269	3	he	
269	6	an Elven-king , A lord of tree and glen , When golden were the boughs in spring	
269	6	an Elven-king	
269	9	A lord of tree and glen	
270	7	him	
271	5	his	
271	12	him	
271	18	him	
282	5	Amroth	
511	14	the Lord	
541	10	the Dark Lord	
541	25	him	
549	9	Lord	
587	13	Lord	
606	22	Amroth , where in happier days his high house was built	
606	22	Amroth	
606	28	his	
624	11	Cerin Amroth	
625	3	him	
625	5	he	
626	2	he	
626	9	him	
626	23	his	
626	29	he	
627	2	he	
629	11	Cerin Amroth	
658	15	Cerin Amroth	
260. Sentence	Head	Text	Context
268	16 (gov)	the faithless ship that bore Him far from Nimrodel	
279	39	the ship	
261. Sentence	Head	Text	Context
271	7 (gov)	his flowing hair	
467	37	his hair	
262. Sentence	Head	Text	Context
273	2 (gov)	The voice of Legolas	
275	1	That	
275	5	a part , for I have forgotten much	
275	5	a part	
276	8	it	
263. Sentence	Head	Text	Context
359	8 (gov)	the Dwarves	
276	23	the Dwarves	
277	3	the Dwarves	
286	13	Dwarves	
360	1	They	
517	4	Dwarves	
264. Sentence	Head	Text	Context
279	2 (gov)	many of the Elves of Nimrodel s kindred	
279	11	their	
265. Sentence	Head	Text	Context
279	9 (gov)	Nimrodel s kindred	
279	17	she	
279	34	she	
279	42	her	
280	16	her	
280	27	her	
266. Sentence	Head	Text	Context
279	23 (gov)	the South	
281	8	the South	
387	17	the South	
634	21	the South	
267. Sentence	Head	Text	Context
279	41 (gov)	Amroth her lover	
279	46	her	
268. Sentence	Head	Text	Context
281	35 (gov)	Anduin the Great	
491	43	Anduin the Great	
269. Sentence	Head	Text	Context
281	28 (gov)	call Celebrant	
281	31	Celebrant	
506	11	Celebrant	
270. Sentence	Head	Text	Context
281	47 (gov)	the Elves of Lorien	
283	29	the Elves of Lorien	
271. Sentence	Head	Text	Context
283	8 (gov)	a house built in the branches of a tree that grew near the falls ; for that was the custom of the Elves of Lorien	
283	41	it	
272. Sentence	Head	Text	Context
283	15 (gov)	a tree that grew near the falls	
283	23	that	
283	26	the custom of the Elves of Lorien	
307	8	the tree	
325	19	the tree	
437	16	the tree	
439	6	this tree	
632	14	the tree	
273. Sentence	Head	Text	Context
290	15 (gov)	the Galadhrim	
284	6	the Galadhrim	
290	15	Galadhrim	
587	18	the Galadhrim	
608	14	the Galadhrim	
623	10	the Galadhrim	
623	10	Galadhrim	
274. Sentence	Head	Text	Context
287	7 (gov)	these latter days dwelling in the trees	
646	19	his dwelling	
275. Sentence	Head	Text	Context
290	1 (gov)	We	
290	10	we	
290	24	we	
291	1	We	
276. Sentence	Head	Text	Context
296	19 (gov)	a kind	
301	21	your kind	
277. Sentence	Head	Text	Context
296	27 (gov)	a name in song	
342	4	my name	
278. Sentence	Head	Text	Context
297	1 (gov)	Mellyrn they	
299	2	it	
279. Sentence	Head	Text	Context
299	26 (gov)	birds	
573	29	birds	
280. Sentence	Head	Text	Context
303	16 (gov)	the trunk high above his head	
328	12	the trunk	
281. Sentence	Head	Text	Context
311	16 (gov)	another clear voice	
323	4	my voice	
282. Sentence	Head	Text	Context
311	20 (gov)	an elven-tongue	
334	16	his elven-tongue	
283. Sentence	Head	Text	Context
320	5 (gov)	his hand	
490	29	his hand	
508	11	his hand	
632	11	his hand	
634	15	his hand	
652	21	his hand	
284. Sentence	Head	Text	Context
322	6 (gov)	us	
323	26	our	
324	22	our	
285. Sentence	Head	Text	Context
326	6 (gov)	a ladder	
326	11	it	
326	26	it	
326	29	it	
329	14	the ladder	
380	7	the ladder	
632	17	the ladder	
286. Sentence	Head	Text	Context
326	17 (gov)	silver-grey and glimmering in the dark	
328	37	they	
287. Sentence	Head	Text	Context
328	2 (gov)	The branches of the mallorn-tree	
438	10	the branches	
629	16	the branches	
288. Sentence	Head	Text	Context
328	5 (gov)	the mallorn-tree	
328	62	it	
329	1	It	
289. Sentence	Head	Text	Context
328	25 (gov)	the top the main stem divided into a crown of many boughs	
435	8	the stem	
290. Sentence	Head	Text	Context
328	36 (gov)	these they found that there had been built	
480	18	these	
291. Sentence	Head	Text	Context
330	10 (gov)	the flet	
328	49	flet as such things	
330	11	he	
333	1	He	
334	2	he	
334	15	his	
392	2	The flet	
411	10	the flet	
413	1	He	
417	14	the flet	
292. Sentence	Head	Text	Context
329	10 (gov)	the centre through which the ladder passed	
600	13	the centre of all	
293. Sentence	Head	Text	Context
330	18 (gov)	three other Elves	
331	1	They	
331	17	they	
332	1	They	
294. Sentence	Head	Text	Context
332	6 (gov)	one of them	
333	3	it	
295. Sentence	Head	Text	Context
334	11 (gov)	words of welcome	
654	30	words	
296. Sentence	Head	Text	Context
337	2 (gov)	the Elf	
417	3	the Elf	
421	3	the Elf	
297. Sentence	Head	Text	Context
337	9 (gov)	the Common Language	
611	9	his language	
298. Sentence	Head	Text	Context
338	1 (gov)	We	
338	7	our	
338	11	we	
339	2	our	
339	11	us	
340	6	us still	
340	20	our	
299. Sentence	Head	Text	Context
338	8 (gov)	our own	
384	11	our own	
300. Sentence	Head	Text	Context
338	26 (gov)	dealings with any other folk	
359	5	dealings	
500	6	dealings	
301. Sentence	Head	Text	Context
339	4 (gov)	our own kindred in the North	
347	10	our kindred	
302. Sentence	Head	Text	Context
340	4 (gov)	some of us still who go abroad for the gathering of news and the watching of our enemies	
340	24	they	
303. Sentence	Head	Text	Context
340	30 (gov)	other lands	
546	14	the lands	
304. Sentence	Head	Text	Context
352	14 (gov)	Haldir	
342	1	Haldir	
357	2	Haldir	
358	1	That	
365	5	Haldir	
380	10	Haldir	
386	10	Haldir	
438	3	Haldir	
457	18	Haldir	
465	3	Haldir	
468	1	Haldir	
469	14	Haldir	
478	2	Haldir	
491	6	Haldir	
503	8	Haldir	
510	8	Haldir sternly	
516	1	Haldir	
527	2	Haldir	
533	7	Haldir	
535	8	Haldir	
540	7	Haldir	
553	2	Haldir	
561	2	Haldir	
569	19	Haldir	
583	34	Haldir	
587	4	Haldir	
605	9	Haldir	
621	1	Haldir	
631	1	Haldir	
634	12	Haldir	
644	10	Haldir	
305. Sentence	Head	Text	Context
343	6 (gov)	Orophin	
449	1	Orophin	
306. Sentence	Head	Text	Context
343	2 (gov)	My brothers	
343	4	Rumil and Orophin	
344	19	their	
307. Sentence	Head	Text	Context
344	2 (gov)	we	
344	7	your coming	
345	1	We	
347	9	our	
347	12	we	
347	27	our	
347	33	our	
308. Sentence	Head	Text	Context
347	20 (gov)	Elrond	
344	14	Elrond passed by Lorien on their way home up the Dimrill Stair	
362	19	Elrond	
363	1	Elrond himself	
363	4	him	
363	13	he	
309. Sentence	Head	Text	Context
548	27 (gov)	the Halflings	
345	9	halflings	
310. Sentence	Head	Text	Context
480	20 (gov)	the strangers	
347	31	strangers	
492	4	no strangers	
311. Sentence	Head	Text	Context
351	3 (gov)	four	
374	2	four	
312. Sentence	Head	Text	Context
374	3 (gov)	The four hobbits	
351	4	four hobbits ; and two men , one of whom , Aragorn	
374	16	them	
388	2	The hobbits	
389	2	they	
389	4	themselves	
389	18	their	
390	4	they	
413	5	the hobbits	
454	20	the hobbits	
482	3	the hobbits	
313. Sentence	Head	Text	Context
351	21 (gov)	the folk of Westernesse	
369	2	Your folk	
314. Sentence	Head	Text	Context
352	2 (gov)	The name of Aragorn son of Arathorn	
611	12	no name	
315. Sentence	Head	Text	Context
352	5 (gov)	Aragorn son of Arathorn	
352	17	he	
316. Sentence	Head	Text	Context
549	11 (gov)	Lady	
352	23	the Lady	
511	17	the Lady	
587	15	Lady	
589	5	the Lady	
317. Sentence	Head	Text	Context
356	2 (gov)	A dwarf !	
379	7	that dwarf	
318. Sentence	Head	Text	Context
359	1 (gov)	We	
360	6	our	
319. Sentence	Head	Text	Context
361	5 (gov)	him	
362	2	he	
363	2	himself	
320. Sentence	Head	Text	Context
362	14 (gov)	trusty people	
449	14	our people	
321. Sentence	Head	Text	Context
366	1 (gov)	We	
366	10	our	
368	3	we	
370	1	We	
370	12	we	
322. Sentence	Head	Text	Context
366	4 (gov)	this	
366	7	it	
323. Sentence	Head	Text	Context
366	11 (gov)	our liking	
392	9	their liking	
393	1	It	
324. Sentence	Head	Text	Context
370	8 (gov)	the rivers	
513	6	the rivers	
544	2	The rivers	
325. Sentence	Head	Text	Context
371	1 (gov)	Wolves	
577	23	wolves	
326. Sentence	Head	Text	Context
371	6 (gov)	the wood s borders	
577	28	the wood s borders	
327. Sentence	Head	Text	Context
371	8 (gov)	borders	
577	30	borders	
328. Sentence	Head	Text	Context
373	3 (gov)	early you	
372	2	you	
329. Sentence	Head	Text	Context
374	11 (gov)	us	
374	12	we	
377	8	us	
378	2	us	
330. Sentence	Head	Text	Context
380	26 (gov)	the high flet	
631	12	the high flet	
632	6	him	
632	8	he	
632	10	his	
632	22	he	
633	1	He	
634	2	he	
634	14	his	
634	18	him	
636	1	he	
637	28	he	
638	8	him	
639	1	He	
640	2	he	
641	1	He	
641	3	his	
641	16	he	
641	23	he	
331. Sentence	Head	Text	Context
384	1 (gov)	We	
384	10	our	
385	8	our	
387	20	we	
387	36	we	
332. Sentence	Head	Text	Context
389	20 (gov)	their own blankets	
384	6	your blankets as well as our own	
333. Sentence	Head	Text	Context
395	12 (gov)	this bird-loft	
395	21	he	
334. Sentence	Head	Text	Context
397	17 (gov)	my meaning	
620	15	my meaning	
335. Sentence	Head	Text	Context
398	5 (gov)	some time awake	
575	44	time	
336. Sentence	Head	Text	Context
423	3 (gov)	Even the leaves	
398	21	quivering leaves	
406	9	the leaves	
573	12	the leaves	
337. Sentence	Head	Text	Context
400	14 (gov)	their	
400	17	their	
338. Sentence	Head	Text	Context
406	3 (gov)	The sickle Moon	
406	5	gleaming dimly among the leaves	
339. Sentence	Head	Text	Context
423	9 (gov)	the very	
424	6	his	
425	1	He	
425	15	he	
427	1	He	
428	7	his	
429	1	He	
430	1	He	
430	6	he	
340. Sentence	Head	Text	Context
426	9 (gov)	a scent	
426	11	it	
427	6	it	
341. Sentence	Head	Text	Context
428	2 (gov)	spite of the fading of his sword	
428	20	it	
342. Sentence	Head	Text	Context
430	10 (gov)	stealthy movements	
431	13	their movements	
343. Sentence	Head	Text	Context
431	2 (gov)	Elves ; for the woodland folk	
431	12	their	
344. Sentence	Head	Text	Context
431	7 (gov)	the woodland folk	
432	2	he	
433	1	He	
433	9	his	
345. Sentence	Head	Text	Context
436	1 (gov)	They	
437	2	they	
346. Sentence	Head	Text	Context
439	3 (gov)	something in this tree	
440	1	It	
441	1	It	
442	1	It	
442	21	it	
347. Sentence	Head	Text	Context
445	5 (gov)	the Nimrodel curse	
445	10	its	
348. Sentence	Head	Text	Context
448	12 (gov)	we	
449	9	our	
449	13	our	
349. Sentence	Head	Text	Context
449	10 (gov)	our dwellings to warn our people	
495	16	our dwellings	
350. Sentence	Head	Text	Context
454	13 (gov)	the mallorn	
567	12	no mallorn	
351. Sentence	Head	Text	Context
454	24 (gov)	the early sun of a cool summer s morning	
467	44	the morning sun	
352. Sentence	Head	Text	Context
454	30 (gov)	a cool summer s morning	
457	2	The morning	
580	3	the morning	
353. Sentence	Head	Text	Context
456	19 (gov)	the Silverlode lying like a sea of fallow gold tossing gently in the breeze	
457	20	his	
354. Sentence	Head	Text	Context
457	22 (gov)	his brother Rumil	
490	1	Rumil , who had remained on the other side	
490	1	Rumil	
490	20	his	
490	28	his	
355. Sentence	Head	Text	Context
460	14 (gov)	the grey tree-stems	
463	1	They	
463	23	they	
465	18	their	
356. Sentence	Head	Text	Context
463	22 (gov)	some way	
463	25	it	
635	3	this way	
357. Sentence	Head	Text	Context
464	6 (gov)	orc-feet in the earth	
466	12	he	
466	20	him	
467	1	He	
467	31	his	
467	36	his	
468	14	he	
358. Sentence	Head	Text	Context
464	9 (gov)	the earth	
615	16	the earth	
630	29	the earth	
359. Sentence	Head	Text	Context
465	13 (gov)	the bank of the river	
468	26	the bank	
482	32	the bank	
360. Sentence	Head	Text	Context
467	11 (gov)	a bird	
487	13	a bird	
361. Sentence	Head	Text	Context
569	24 (gov)	the other Elf	
467	22	an Elf	
529	4	an Elf	
529	4	Elf	
362. Sentence	Head	Text	Context
469	6 (gov)	a strong stream here , as you see , said Haldir , and it runs both swift and deep , and is very cold	
470	7	it	
363. Sentence	Head	Text	Context
470	1 (gov)	We	
470	13	we	
471	7	we	
472	4	we	
364. Sentence	Head	Text	Context
471	4 (gov)	these days of watchfulness	
537	7	these days	
365. Sentence	Head	Text	Context
474	1 (gov)	He	
474	3	his	
474	29	he	
366. Sentence	Head	Text	Context
474	4 (gov)	his end of the rope fast about another tree	
474	18	it , over the river and back again	
474	18	it	
367. Sentence	Head	Text	Context
479	1 (gov)	We	
480	1	We	
368. Sentence	Head	Text	Context
479	5 (gov)	two more ropes	
489	21	the ropes	
369. Sentence	Head	Text	Context
482	7 (gov)	the best	
483	18	it	
483	21	a chasm in the mountains	
370. Sentence	Head	Text	Context
486	3 (gov)	my gaffer used to say	
487	2	he	
371. Sentence	Head	Text	Context
488	9 (gov)	a trick	
488	11	that	
372. Sentence	Head	Text	Context
490	9 (gov)	the other side	
490	18	it	
373. Sentence	Head	Text	Context
491	12 (gov)	the Naith of Lorien , or the Gore	
492	12	the Naith	
575	30	the Naith	
595	18	the Naith of Lorien	
374. Sentence	Head	Text	Context
492	1 (gov)	We	
495	11	we	
495	15	our	
375. Sentence	Head	Text	Context
494	10 (gov)	the eyes of Gimli the Dwarf	
533	5	our eyes	
376. Sentence	Head	Text	Context
494	14 (gov)	Gimli the Dwarf	
588	10	the dwarf Gimli	
			
