1. Sentence	Head	Text	Context
1	7 (gov)	SHADOW Sam	
1	19	his	
19	6	Sam	
23	7	Sam	
26	7	Sam	
31	18	Sam	
32	3	Sam	
37	10	Sam	
42	2	Sam	
42	8	he	
44	2	Sam	
45	10	he	
2. Sentence	Head	Text	Context
2	4 (gov)	Mr. Frodo	
3	1	he	
19	9	Frodo	
26	5	Frodo	
31	16	Frodo	
34	2	Frodo	
37	7	Mr. Frodo	
37	7	Frodo	
40	1	Frodo	
46	5	Mr. Frodo	
46	5	Frodo	
50	10	Frodo	
66	2	Frodo	
68	2	he	
68	4	himself	
68	12	he	
69	6	he	
70	2	his	
70	4	he	
72	1	he	
75	4	his	
77	1	he	
79	8	Mr. Frodo	
79	8	Frodo	
80	1	Frodo	
80	11	he	
81	3	he	
82	8	he	
94	9	Frodo	
101	8	Mr. Frodo	
105	1	Frodo	
105	4	his	
106	1	He	
107	9	he	
109	8	Mr. Frodo	
109	8	Frodo	
110	1	He	
110	3	his	
111	6	Frodo	
117	1	Frodo	
119	1	he	
125	5	Mr. Frodo	
125	5	Frodo	
131	7	Frodo	
136	2	Frodo	
137	5	he	
145	6	Mr. Frodo	
155	2	Frodo	
163	7	Mr. Frodo	
165	9	Frodo	
173	4	Mr. Frodo	
174	1	he	
179	19	Frodo	
185	19	Frodo	
185	22	he	
186	2	he	
188	3	he	
188	11	he	
188	22	him	
188	32	his	
202	7	Mr. Frodo	
202	7	Frodo	
202	9	he	
212	3	Frodo	
213	11	Frodo	
215	1	He	
215	4	he	
229	3	Frodo	
231	15	Frodo	
232	1	He	
240	9	Mr. Frodo	
240	9	Frodo	
240	11	he	
243	1	Frodo	
244	4	his	
244	9	he	
244	11	Frodo	
244	17	he	
245	7	himself	
245	10	he	
255	12	Frodo	
256	1	His	
257	2	his	
257	12	he	
257	20	his	
269	1	Frodo	
280	4	Frodo	
290	9	Frodo	
299	6	Mr. Frodo	
300	15	Frodo	
394	12	Mr. Frodo	
397	9	Frodo	
403	32	Frodo	
403	37	he	
403	54	his	
404	2	he	
404	6	Frodo	
405	3	he	
406	12	he	
417	4	Frodo	
417	6	himself	
417	19	he	
417	26	him	
418	6	Mr. Frodo	
418	6	Frodo	
418	8	he	
430	17	Mr. Frodo	
430	17	Frodo	
432	13	Frodo	
451	12	Frodo	
454	9	Mr. Frodo	
454	9	Frodo	
459	7	Frodo	
465	15	Mr. Frodo	
467	1	He	
467	3	Frodo	
467	14	he	
467	19	his	
467	22	his	
468	1	Frodo	
468	15	him	
468	17	he	
468	38	his	
469	2	Frodo	
469	8	him	
469	12	his	
469	16	his	
472	4	himself	
480	20	Frodo	
488	5	Frodo	
489	26	Frodo	
490	12	Mr. Frodo	
490	12	Frodo	
490	14	he	
491	7	him	
492	10	him	
495	2	Frodo	
498	4	he	
498	14	he	
498	17	himself	
499	2	he	
499	12	his	
500	7	Mr. Frodo	
506	1	Frodo	
506	10	he	
517	38	Frodo	
518	8	Frodo	
521	1	He	
522	1	He	
524	1	he	
525	1	He	
525	13	his	
528	4	he	
528	8	Frodo	
563	16	Frodo	
576	23	Frodo	
576	31	his	
577	1	He	
578	6	him	
578	9	him	
578	13	he	
578	16	he	
578	18	himself	
579	5	he	
579	13	his	
589	28	Frodo	
589	31	him	
595	5	Mr. Frodo	
596	1	he	
598	6	Frodo	
598	8	himself	
598	10	his	
599	2	he	
599	17	he	
3. Sentence	Head	Text	Context
474	2 (gov)	we	
474	7	we	
4. Sentence	Head	Text	Context
422	5 (gov)	twenty leagues at least from the bridge back by the Tower	
4	1	No , not that way !	
4	1	No	
7	7	they	
8	19	them	
9	1	They	
10	6	they	
10	12	they	
10	15	their	
13	3	they	
14	10	them	
15	2	they	
15	5	they	
15	19	they	
16	1	They	
165	2	no , not	
165	2	no	
419	1	No , not any clear notion , Sam , Frodo	
419	1	No	
422	1	That	
558	1	No	
5. Sentence	Head	Text	Context
475	13 (gov)	more than hobbit-care	
475	16	he	
475	36	he	
476	19	his	
476	21	he	
477	6	he	
479	2	he	
480	4	he	
481	6	he	
482	19	he	
482	23	his	
483	4	him	
484	3	he	
487	3	he	
488	1	He	
488	10	him	
488	13	he	
488	21	himself	
489	4	he	
489	6	his	
489	12	his	
489	24	he	
6. Sentence	Head	Text	Context
5	5 (gov)	a sheer drop over the wall	
511	26	the sheer drop	
7. Sentence	Head	Text	Context
475	14 (gov)	hobbit-care	
475	26	it	
475	31	it	
475	48	its	
8. Sentence	Head	Text	Context
5	8 (gov)	the wall	
585	24	the wall	
9. Sentence	Head	Text	Context
108	8 (gov)	else I	
6	2	me	
46	2	me	
46	8	I	
47	3	I	
47	12	I	
48	19	I	
64	7	me	
64	13	I	
78	1	I	
79	11	I	
79	18	my	
83	1	I	
84	4	I	
85	3	my	
86	2	my	
86	7	I	
93	1	I	
94	11	I	
94	17	I	
95	2	I	
95	17	I	
97	6	me	
99	5	I	
100	1	I	
100	20	me	
103	1	I	
103	6	my	
103	10	I	
107	2	I	
109	4	my	
115	16	I	
120	1	I	
121	1	I	
122	10	my	
123	2	I	
123	9	I	
124	2	I	
127	12	I	
133	1	I	
152	1	I	
152	3	I	
158	3	I	
170	2	I	
170	8	my	
175	1	I	
175	6	I	
176	8	I	
198	3	I	
198	9	I	
202	2	me	
204	1	I	
205	1	I	
205	11	that	
205	21	me than you , master	
205	23	you , master	
205	30	me	
206	1	I	
207	2	I	
216	1	I	
217	3	I	
228	1	I	
228	3	I	
231	1	I	
231	11	I	
242	1	I	
277	1	I	
278	4	I	
279	9	my	
288	7	I	
291	6	I	
292	1	I	
293	1	I	
294	2	I	
294	10	I	
295	3	that	
296	8	I	
297	1	I	
300	1	I	
300	4	I	
317	1	I	
319	4	my	
320	8	I	
321	1	I	
322	13	I	
325	1	I	
332	2	mine	
333	1	That	
338	14	I	
338	19	I	
344	7	I	
347	1	I	
350	1	I	
352	12	I	
355	3	I	
356	24	I	
358	4	I	
358	9	I	
362	1	I	
364	10	I	
368	1	I	
376	8	I	
376	13	I	
382	3	I	
395	1	I	
395	12	I	
396	3	I	
397	2	I	
399	1	I	
400	5	me	
402	1	I	
402	10	I	
402	15	I	
402	19	I	
406	3	I	
407	1	I	
410	5	me	
411	1	I	
411	11	my	
411	15	I	
412	3	I	
413	1	I	
413	8	I	
413	15	my	
420	4	I	
420	7	I	
420	25	I	
421	1	I	
424	26	I	
425	1	I	
426	7	I	
427	1	I	
427	16	I	
429	1	That	
429	5	I	
432	1	I	
434	2	s	
460	2	me	
462	1	Mine	
463	2	I	
464	1	I	
473	1	I	
485	7	me	
487	1	I	
490	7	I	
492	1	I	
492	15	I	
493	1	I	
493	20	I	
493	25	my	
497	2	I	
518	1	I	
556	9	I	
561	12	I	
571	11	my	
573	1	I	
580	1	I	
10. Sentence	Head	Text	Context
7	6 (gov)	the gate	
586	18	the gate	
11. Sentence	Head	Text	Context
8	2 (gov)	fifty	
358	19	fifty	
12. Sentence	Head	Text	Context
8	3 (gov)	fifty paces , with a swift bend round a jutting bastion of the cliff	
8	3	fifty paces	
358	20	fifty paces	
13. Sentence	Head	Text	Context
475	49 (gov)	its spring	
481	11	the spring	
14. Sentence	Head	Text	Context
8	12 (gov)	with a swift bend round a jutting bastion of the cliff	
8	17	it	
15. Sentence	Head	Text	Context
8	15 (gov)	the cliff	
528	14	the cliff	
16. Sentence	Head	Text	Context
8	25 (gov)	the Tower	
14	19	the Tower	
20	15	the Tower	
188	9	the Tower	
251	5	the Tower	
268	58	tower on tower	
280	55	the Tower	
338	24	Tower	
369	9	the Tower	
422	14	the Tower	
17. Sentence	Head	Text	Context
476	24 (gov)	the sound of trickling	
516	29	the sound	
18. Sentence	Head	Text	Context
9	6 (gov)	the moment	
283	3	the moment	
283	4	it	
284	3	it	
284	8	its purpose to defend the Mountain against all approach	
284	7	its	
284	17	it	
287	13	it	
480	3	that moment	
19. Sentence	Head	Text	Context
10	5 (gov)	the rock	
183	36	the rock	
506	6	the rock	
20. Sentence	Head	Text	Context
477	10 (gov)	a tiny stream of dark water that came out from the hill-side and filled	
477	30	it	
21. Sentence	Head	Text	Context
11	5 (gov)	the wall beside the ruined gate	
11	14	its	
22. Sentence	Head	Text	Context
11	9 (gov)	the ruined gate	
268	53	gate on gate	
23. Sentence	Head	Text	Context
17	18 (gov)	the Nazgul	
11	11	the Nazgul	
368	10	the Nazgul	
24. Sentence	Head	Text	Context
14	3 (gov)	the road	
22	6	this road	
25	25	the road	
31	37	the road	
36	29	the road	
212	20	the road	
212	29	its	
454	6	the road , Mr. Frodo	
454	6	the road	
455	4	it	
514	6	the road	
517	45	the road	
576	9	the road	
591	27	the road	
25. Sentence	Head	Text	Context
481	4 (gov)	a cry	
482	1	It	
482	17	it	
482	26	its	
483	2	it	
484	10	it	
26. Sentence	Head	Text	Context
16	5 (gov)	the way-meeting	
25	6	the way-meeting	
27. Sentence	Head	Text	Context
279	6 (gov)	Men not Orcs	
17	7	orcs	
17	21	they	
274	6	these	
274	10	them	
279	2	these	
279	6	Men not Orcs , or my eyes are all wrong	
298	6	the Orcs and Men	
298	6	Orcs	
301	1	They	
301	10	their	
301	28	they	
302	4	they	
302	14	they	
303	7	they	
304	6	they	
304	22	they	
388	1	Orcs	
388	6	that	
388	15	they	
388	18	their	
390	1	They	
391	8	they	
391	13	their	
403	59	the orcs	
486	7	orcs	
497	8	orcs	
498	11	them	
530	2	The orcs	
590	1	Orcs	
590	4	them , snarling and cursing	
28. Sentence	Head	Text	Context
18	6 (gov)	the hunt	
386	12	the hunt	
29. Sentence	Head	Text	Context
484	8 (gov)	a last fleeting glimpse of it	
485	14	that	
485	18	a near thing	
486	3	it	
30. Sentence	Head	Text	Context
484	16 (gov)	the edge of the eastward precipice , before it ducked and disappeared	
511	17	the edge	
31. Sentence	Head	Text	Context
20	5 (gov)	real orcs	
20	2	we	
32. Sentence	Head	Text	Context
484	20 (gov)	the eastward precipice	
484	23	it	
33. Sentence	Head	Text	Context
20	7 (gov)	we	
21	4	we	
21	8	us	
22	1	We	
23	2	we	
34. Sentence	Head	Text	Context
21	2 (gov)	first	
155	41	first	
187	17	first	
202	4	first	
240	6	first	
241	1	It	
282	2	first	
282	6	first	
334	1	First	
334	4	it	
334	14	it	
334	23	it	
334	27	a pack of rebel Uruk-hai	
334	34	it	
375	8	first	
438	3	first	
510	3	first	
511	1	It	
511	6	a broad road	
511	9	it	
511	21	it	
511	28	its	
586	15	first	
35. Sentence	Head	Text	Context
21	3 (gov)	The first enemy we meet	
420	19	the Enemy	
36. Sentence	Head	Text	Context
129	13 (gov)	the Ephel Duath	
24	7	the Ephel Duath	
129	13	Ephel Duath	
155	21	the Ephel Duath	
155	21	Ephel Duath	
442	35	the Ephel Duath	
37. Sentence	Head	Text	Context
24	27 (gov)	the inner ridge	
442	20	the inner ridge	
38. Sentence	Head	Text	Context
25	3 (gov)	A short way beyond the way-meeting	
80	5	the way	
82	1	It	
83	5	it	
186	11	the way	
39. Sentence	Head	Text	Context
25	15 (gov)	a flying bridge of stone	
26	11	the bridge	
35	10	the bridge	
41	15	the bridge and the	
41	15	the bridge	
425	13	the bridge	
40. Sentence	Head	Text	Context
36	16 (gov)	the slopes of the Morgai	
25	30	the tumbled slopes and glens of the Morgai	
41. Sentence	Head	Text	Context
36	19 (gov)	the Morgai	
25	35	the Morgai	
185	40	the Morgai	
239	3	the Morgai	
259	15	the Morgai	
273	14	the Morgai	
273	14	Morgai	
301	17	the Morgai	
301	17	Morgai	
442	8	the Morgai	
42. Sentence	Head	Text	Context
26	4 (gov)	a desperate spurt	
26	18	its	
43. Sentence	Head	Text	Context
55	8 (gov)	Sam , Frodo	
26	5	Frodo and Sam	
26	14	they	
26	22	they	
27	3	them	
55	6	Sam	
64	20	Sam	
70	7	Sam	
71	4	Sam	
75	1	Sam	
76	2	I never	
79	24	their	
82	6	Sam	
90	10	Sam	
109	11	Sam	
123	7	Sam	
124	6	them	
126	2	Sam	
129	1	Sam	
130	1	They	
131	1	They	
146	2	Sam	
155	2	Frodo and Sam	
155	4	Sam	
155	25	they	
155	71	them	
156	27	them	
160	2	Sam	
165	7	Sam	
168	2	I m so tired	
169	8	Sam	
171	1	Sam	
179	19	Frodo and Sam	
179	21	Sam	
197	1	Sam	
204	8	Sam	
207	11	Sam	
209	24	they	
211	1	They	
211	3	their	
211	7	Sam	
212	8	they	
213	8	Sam	
231	6	Sam	
233	7	they	
234	2	they	
234	10	they	
235	20	Sam	
238	2	Sam	
244	1	Sam	
248	17	Sam	
255	1	Sam	
258	1	They	
258	11	they	
258	26	they	
259	8	their	
260	6	they	
260	11	they	
260	24	they	
261	1	They	
261	15	themselves	
262	2	them	
262	27	their	
265	10	they	
269	1	Frodo and Sam	
269	3	Sam	
270	2	them	
271	1	They	
273	4	their	
277	13	Sam	
286	1	Sam	
287	2	they	
297	10	Sam	
381	3	Sam	
384	5	Sam , Frodo	
384	3	Sam	
393	1	Sam	
394	5	they	
402	6	Sam	
403	29	Sam	
404	11	Sam	
410	7	Sam	
416	6	Sam	
419	10	Sam , Frodo	
419	8	Sam	
427	5	Sam	
428	1	Sam	
432	10	Sam	
451	9	Sam	
454	12	Sam	
459	4	Sam	
463	7	Sam	
466	9	them	
468	11	Sam	
468	24	their	
468	29	Sam	
469	5	Sam	
472	1	Sam	
475	1	Sam	
476	12	Sam	
478	1	Sam	
482	12	Sam	
484	1	Sam	
485	11	Sam	
494	4	Sam	
499	16	Sam	
504	3	Sam	
518	5	Sam	
526	5	Sam	
529	1	They	
533	2	Sam	
533	19	them	
533	24	their	
533	27	their	
533	31	their	
534	3	they	
536	6	they	
541	1	Sam	
544	6	them	
546	1	They	
563	7	poor Sam	
563	7	Sam	
578	2	Sam	
579	27	their	
582	1	They	
589	10	Sam	
594	19	Sam	
594	22	they	
44. Sentence	Head	Text	Context
491	1 (gov)	Leastways	
491	4	it	
45. Sentence	Head	Text	Context
27	16 (gov)	Cirith Ungol	
27	16	Ungol , its stones glowing dully	
184	20	Cirith Ungol	
46. Sentence	Head	Text	Context
492	7 (gov)	some water	
493	3	it	
47. Sentence	Head	Text	Context
27	9 (gov)	the mountain-side	
27	18	its	
28	2	its	
48. Sentence	Head	Text	Context
30	6 (gov)	the bridge-end	
583	13	the bridge-end	
49. Sentence	Head	Text	Context
31	14 (gov)	Orodruin	
191	8	Orodruin	
191	15	a great fume that , beaten upwards by the opposing airs , mounted higher and higher , until it reached a region above the wind and spread in an immeasurable roof , whose central pillar rose out of the shadows beyond their view	
191	31	it	
50. Sentence	Head	Text	Context
31	12 (gov)	the dying glare of Orodruin , Frodo and Sam	
59	2	The glare	
51. Sentence	Head	Text	Context
35	1 (gov)	They	
36	37	them	
52. Sentence	Head	Text	Context
501	4 (gov)	a bottle full of water	
503	4	it	
53. Sentence	Head	Text	Context
503	1 (gov)	We	
503	7	we	
504	2	that	
54. Sentence	Head	Text	Context
37	3 (gov)	here goes	
39	1	He	
55. Sentence	Head	Text	Context
509	7 (gov)	the watch-fires on the heights	
510	1	They	
510	14	they	
56. Sentence	Head	Text	Context
41	4 (gov)	they	
41	6	they	
43	37	they	
57. Sentence	Head	Text	Context
41	17 (gov)	the	
143	26	the	
143	35	their	
184	22	the	
185	26	the	
440	10	the	
58. Sentence	Head	Text	Context
510	18 (gov)	the road at the point	
510	23	it	
59. Sentence	Head	Text	Context
43	12 (gov)	the hobbits	
185	6	the hobbits	
185	14	they	
186	13	their	
314	7	the hobbits	
380	5	the hobbits	
403	3	the hobbits	
441	4	the hobbits	
441	17	them	
448	26	the hobbits	
449	5	they	
509	18	the hobbits	
509	29	their	
512	2	The hobbits	
512	14	they	
513	7	they	
514	16	they	
591	7	the hobbits	
591	19	they	
60. Sentence	Head	Text	Context
43	24 (gov)	no more than a dozen feet	
75	5	his feet	
61. Sentence	Head	Text	Context
511	29 (gov)	its brink	
522	11	the brink	
62. Sentence	Head	Text	Context
44	10 (gov)	a scratched hand	
64	17	his hand	
129	6	his hand	
172	12	his hand	
581	8	his hand	
63. Sentence	Head	Text	Context
383	9 (gov)	Mordor	
46	16	Mordor	
143	5	Mordor	
144	13	Mordor	
221	9	Mordor	
221	13	a dying land	
237	10	Mordor	
246	2	The land	
261	25	Mordor	
387	7	Mordor	
403	18	Mordor	
420	13	Mordor	
440	13	Mordor	
445	17	Mordor	
455	16	Mordor	
64. Sentence	Head	Text	Context
47	5 (gov)	a known	
48	12	them	
48	14	they	
562	16	a	
65. Sentence	Head	Text	Context
515	1 (gov)	This	
516	1	They	
516	12	they	
516	26	they	
516	33	they	
517	7	them	
517	12	they	
517	30	they	
66. Sentence	Head	Text	Context
47	8 (gov)	this	
111	3	this , Mr.	
111	3	this	
114	2	this	
115	1	It	
115	9	it	
115	18	it	
116	1	It	
67. Sentence	Head	Text	Context
516	5 (gov)	some minutes	
517	1	It	
518	3	it , Sam	
518	3	it	
519	8	it	
68. Sentence	Head	Text	Context
48	2 (gov)	These thorns	
50	6	these thorns	
69. Sentence	Head	Text	Context
52	1 (gov)	They	
54	1	Their	
54	8	they	
70. Sentence	Head	Text	Context
533	17 (gov)	the torches	
517	18	torches coming round the bend less than a mile away	
531	7	torches	
71. Sentence	Head	Text	Context
224	5 (gov)	thorns	
53	2	The thorns and briars	
72. Sentence	Head	Text	Context
54	2 (gov)	Their cloaks	
54	4	rent and tattered	
73. Sentence	Head	Text	Context
54	12 (gov)	last	
195	54	last	
229	2	last	
417	2	last when Frodo roused himself and spoke of eating and making ready for yet another effort	
489	2	last when he felt his eyes closing and knew that his struggle to keep awake could not go on much longer	
523	5	last	
74. Sentence	Head	Text	Context
55	3 (gov)	we	
56	16	we	
75. Sentence	Head	Text	Context
519	1 (gov)	We	
519	11	us	
520	1	We	
523	1	We	
76. Sentence	Head	Text	Context
56	8 (gov)	then	
251	14	then	
251	15	he	
251	19	himself	
433	3	then	
77. Sentence	Head	Text	Context
521	8 (gov)	the frowning wall , where the road-builders of old had cut the rock sheer for many fathoms above their heads	
525	8	the wall of rock	
78. Sentence	Head	Text	Context
242	4 (gov)	this day	
57	1	Day	
415	14	day	
79. Sentence	Head	Text	Context
57	7 (gov)	the world	
151	9	the world	
263	5	the world	
80. Sentence	Head	Text	Context
521	12 (gov)	the road-builders of old	
521	24	their	
81. Sentence	Head	Text	Context
57	14 (gov)	the glooms of Mordor	
60	10	they	
61	4	they	
61	29	they	
62	3	they	
62	12	their	
82. Sentence	Head	Text	Context
58	2 (gov)	The Mountain	
58	5	its	
95	12	the Mountain	
280	24	the Mountain	
424	19	the Mountain	
424	24	it	
83. Sentence	Head	Text	Context
58	6 (gov)	its fires	
266	2	Its fires	
84. Sentence	Head	Text	Context
182	20 (gov)	the westward cliffs	
59	6	the cliffs	
85. Sentence	Head	Text	Context
61	23 (gov)	the blind shadows	
191	52	the shadows	
86. Sentence	Head	Text	Context
525	14 (gov)	his head	
533	6	his head	
87. Sentence	Head	Text	Context
527	3 (gov)	we	
528	3	that	
88. Sentence	Head	Text	Context
63	1 (gov)	Both	
64	3	himself	
89. Sentence	Head	Text	Context
64	2 (gov)	Shagrat himself	
64	16	his	
161	8	Shagrat	
161	12	he	
162	2	he	
366	5	your precious Shagrat	
367	1	He	
90. Sentence	Head	Text	Context
530	8 (gov)	a great pace	
578	22	the pace	
91. Sentence	Head	Text	Context
531	1 (gov)	Those in the foremost files	
532	2	they	
92. Sentence	Head	Text	Context
65	1 (gov)	Don	
101	1	Don	
575	1	Don	
93. Sentence	Head	Text	Context
532	5 (gov)	red	
533	10	it	
94. Sentence	Head	Text	Context
65	2 (gov)	Don t	
67	1	It	
67	4	it	
101	2	Don t	
101	5	it , Mr. Frodo	
101	5	it	
575	2	Don t	
95. Sentence	Head	Text	Context
65	5 (gov)	such things	
163	1	Things	
222	3	things	
96. Sentence	Head	Text	Context
533	5 (gov)	his	
533	13	his	
533	22	he	
97. Sentence	Head	Text	Context
68	18 (gov)	a while	
134	8	a while	
248	25	a while	
593	6	a while	
594	1	It	
98. Sentence	Head	Text	Context
533	25 (gov)	their shields	
550	19	their shields	
99. Sentence	Head	Text	Context
534	7 (gov)	a hurry	
536	3	it	
100. Sentence	Head	Text	Context
534	12 (gov)	a couple of tired soldiers	
535	1	he	
101. Sentence	Head	Text	Context
417	17 (gov)	yet another effort	
74	7	another effort	
102. Sentence	Head	Text	Context
537	3 (gov)	The leading orcs	
537	11	their	
538	1	They	
538	13	their	
538	20	they	
539	2	them	
103. Sentence	Head	Text	Context
76	1 (gov)	Well	
79	1	It	
165	1	Well	
166	1	That	
104. Sentence	Head	Text	Context
79	5 (gov)	a long time	
125	16	this time	
393	11	this time	
105. Sentence	Head	Text	Context
79	19 (gov)	my eyes	
273	5	their eyes	
106. Sentence	Head	Text	Context
79	25 (gov)	their own	
388	19	their own	
468	39	his own	
499	13	his own	
107. Sentence	Head	Text	Context
540	9 (gov)	the tell-tale torchlight	
541	3	his	
544	1	He	
546	10	he	
548	1	he	
550	1	He	
550	13	he	
552	1	he	
108. Sentence	Head	Text	Context
80	24 (gov)	the bottom of the great ravine	
181	10	its bottom	
109. Sentence	Head	Text	Context
82	4 (gov)	no good , Sam	
352	7	no good	
355	12	it	
110. Sentence	Head	Text	Context
544	4 (gov)	a whip	
571	5	a whip	
111. Sentence	Head	Text	Context
546	14 (gov)	the whole company	
562	21	the company	
112. Sentence	Head	Text	Context
549	4 (gov)	no time for slouching	
549	1	This	
113. Sentence	Head	Text	Context
87	1 (gov)	This	
88	7	it	
114. Sentence	Head	Text	Context
550	4 (gov)	a step	
553	4	it	
115. Sentence	Head	Text	Context
550	6 (gov)	them	
550	18	their	
116. Sentence	Head	Text	Context
89	1 (gov)	We	
90	2	we	
117. Sentence	Head	Text	Context
91	4 (gov)	knives	
224	13	knives	
118. Sentence	Head	Text	Context
490	2 (gov)	That Gollum	
92	2	Gollum	
395	4	Gollum	
403	43	Gollum	
508	6	Gollum	
119. Sentence	Head	Text	Context
557	1 (gov)	They	
557	4	their	
120. Sentence	Head	Text	Context
93	23 (gov)	the dark	
241	4	dark	
532	9	the dark	
585	15	the dark	
121. Sentence	Head	Text	Context
557	14 (gov)	footsore soldiers	
557	16	they	
122. Sentence	Head	Text	Context
94	4 (gov)	Sam dear lad	
94	2	here	
123. Sentence	Head	Text	Context
557	21 (gov)	the rear of the line	
558	6	the rear	
124. Sentence	Head	Text	Context
94	19 (gov)	haven t	
164	2	Haven t	
329	3	t even	
125. Sentence	Head	Text	Context
559	2 (gov)	the slave-driver	
562	1	He	
562	3	his	
563	11	he	
564	1	He	
564	3	his	
564	9	his	
564	15	he	
565	8	him	
565	13	he	
566	8	he	
566	11	his	
566	15	his	
566	20	his	
566	31	he	
566	35	he	
126. Sentence	Head	Text	Context
96	2 (gov)	The Ring	
169	3	the Ring	
170	6	it in my mind	
127. Sentence	Head	Text	Context
97	3 (gov)	This extra weight	
98	1	It	
128. Sentence	Head	Text	Context
562	5 (gov)	his long whip-lash cracking over their heads	
563	1	It	
563	17	it	
129. Sentence	Head	Text	Context
99	6 (gov)	m ungrateful	
100	18	it	
130. Sentence	Head	Text	Context
562	11 (gov)	then with another crack and a	
562	18	he	
131. Sentence	Head	Text	Context
103	7 (gov)	my back	
104	2	it	
312	8	his back	
358	24	the back	
132. Sentence	Head	Text	Context
105	5 (gov)	his cloak	
105	13	it	
109	5	my cloak	
117	4	the cloak	
118	1	That	
133. Sentence	Head	Text	Context
565	6 (gov)	the sweating orcs about him	
566	4	they	
568	11	them	
570	6	their	
134. Sentence	Head	Text	Context
106	4 (gov)	a little	
196	10	a little	
217	7	a little	
514	10	a little	
135. Sentence	Head	Text	Context
107	6 (gov)	something warm	
108	1	It	
136. Sentence	Head	Text	Context
566	21 (gov)	his legs	
570	7	their legs	
137. Sentence	Head	Text	Context
568	5 (gov)	the orc-driver	
570	1	he	
138. Sentence	Head	Text	Context
111	2 (gov)	s this , Mr.	
125	11	s	
139. Sentence	Head	Text	Context
111	5 (gov)	Mr.	
112	1	he	
140. Sentence	Head	Text	Context
113	6 (gov)	orc-rag close round you	
113	14	it	
141. Sentence	Head	Text	Context
127	4 (gov)	only the Lady	
116	6	the Lady	
127	16	her	
198	6	the Lady	
198	12	her	
409	11	the Lady	
142. Sentence	Head	Text	Context
121	5 (gov)	now	
231	4	now , Sam	
231	4	now	
143. Sentence	Head	Text	Context
122	11 (gov)	my heart	
249	7	his heart	
144. Sentence	Head	Text	Context
123	18 (gov)	Woody End	
250	17	the end	
302	3	the end	
579	9	the end	
145. Sentence	Head	Text	Context
123	5 (gov)	prison , Sam	
125	7	it	
146. Sentence	Head	Text	Context
580	7 (gov)	that big slave-driving devil anyway	
580	10	he	
581	4	he	
581	7	his	
581	13	his	
147. Sentence	Head	Text	Context
127	7 (gov)	us	
127	10	us	
127	22	we	
148. Sentence	Head	Text	Context
583	30 (gov)	Barad-dur	
588	7	Barad-dur	
589	3	he	
589	17	his	
589	22	himself	
149. Sentence	Head	Text	Context
583	2 (gov)	Some way in front of it	
585	2	it	
150. Sentence	Head	Text	Context
127	25 (gov)	light and water : just clean water and plain daylight , better than any jewels , begging your pardon	
200	1	Light and now water !	
151. Sentence	Head	Text	Context
180	2 (gov)	The light	
127	25	light	
128	2	it	
181	1	It	
181	9	its	
182	2	its	
191	2	The light	
439	3	the light	
439	11	it	
152. Sentence	Head	Text	Context
127	43 (gov)	your pardon	
418	3	your pardon , Mr. Frodo	
418	3	your pardon	
493	17	your pardon	
153. Sentence	Head	Text	Context
128	8 (gov)	Lorien	
129	5	his	
154. Sentence	Head	Text	Context
585	6 (gov)	several companies	
586	23	their	
155. Sentence	Head	Text	Context
129	9 (gov)	the heights of the Ephel Duath	
509	10	the heights	
156. Sentence	Head	Text	Context
132	5 (gov)	a Black Rider over us	
132	9	he	
157. Sentence	Head	Text	Context
132	7 (gov)	us	
134	1	We	
158. Sentence	Head	Text	Context
587	3 (gov)	the drivers	
587	7	their	
159. Sentence	Head	Text	Context
135	6 (gov)	they	
138	1	They	
138	7	they	
139	3	their left , southward	
140	5	them	
143	11	their	
160. Sentence	Head	Text	Context
588	5 (gov)	heavy-armed uruks from Barad-dur	
588	15	them	
161. Sentence	Head	Text	Context
136	5 (gov)	a sigh of relief	
137	1	It	
162. Sentence	Head	Text	Context
139	10 (gov)	a sky that was turning grey	
141	2	it	
163. Sentence	Head	Text	Context
590	6 (gov)	snarling and cursing	
590	4	them	
164. Sentence	Head	Text	Context
141	6 (gov)	the North	
267	35	the North	
165. Sentence	Head	Text	Context
591	13 (gov)	the turmoil	
592	1	It	
592	19	it	
166. Sentence	Head	Text	Context
143	16 (gov)	a wind	
148	2	The wind	
150	5	it	
167. Sentence	Head	Text	Context
143	33 (gov)	the dark land of their home	
445	29	their land	
168. Sentence	Head	Text	Context
592	8 (gov)	troop-leaders	
592	11	themselves	
593	1	They	
169. Sentence	Head	Text	Context
144	3 (gov)	the lifting	
145	3	it	
147	3	it	
170. Sentence	Head	Text	Context
150	1 (gov)	He	
150	7	his	
151	1	His	
171. Sentence	Head	Text	Context
150	9 (gov)	his own way	
182	13	its way	
172. Sentence	Head	Text	Context
153	4 (gov)	the morning of the fifteenth of March	
151	2	His darkness	
153	1	It	
173. Sentence	Head	Text	Context
155	10 (gov)	the rim of light spread all along the line of the Ephel Duath , and then they	
155	58	it	
156	2	it	
156	4	it	
156	29	it	
156	32	a cry of woe and dismay , ill tidings for the Dark Tower	
270	10	it north and south	
174. Sentence	Head	Text	Context
155	17 (gov)	the line of the Ephel Duath	
539	9	the line	
557	24	the line	
561	16	the line	
175. Sentence	Head	Text	Context
155	38 (gov)	the West	
247	8	the West	
263	10	the West	
440	6	the West	
445	51	the West	
583	19	the west	
176. Sentence	Head	Text	Context
156	13 (gov)	the voice of a Nazgul	
368	17	his voice	
370	7	his voice	
177. Sentence	Head	Text	Context
156	16 (gov)	a Nazgul	
368	10	Nazgul	
368	16	his	
178. Sentence	Head	Text	Context
156	39 (gov)	ill tidings for the Dark Tower	
156	34	woe and dismay	
179. Sentence	Head	Text	Context
157	2 (gov)	The Lord of the Ringwraiths	
157	8	his	
180. Sentence	Head	Text	Context
221	8 (gov)	the westward mountains	
166	6	the mountains	
180	28	the mountains	
248	15	the mountains , Sam	
248	15	the mountains	
442	5	the mountains	
181. Sentence	Head	Text	Context
170	9 (gov)	my mind	
564	10	his mind	
182. Sentence	Head	Text	Context
172	1 (gov)	He	
172	4	his	
172	9	he	
172	11	his	
183. Sentence	Head	Text	Context
172	5 (gov)	his master	
467	23	his master	
579	14	his master	
184. Sentence	Head	Text	Context
175	5 (gov)	one thing I wanted : a bit of light	
176	10	it	
185. Sentence	Head	Text	Context
176	4 (gov)	us	
177	8	we	
186. Sentence	Head	Text	Context
177	3 (gov)	a bit	
430	23	a bit	
432	7	a bit	
187. Sentence	Head	Text	Context
178	4 (gov)	a morsel to eat now , a bit of the Elves food	
178	16	it	
188. Sentence	Head	Text	Context
178	14 (gov)	the Elves food	
457	2	Our food	
458	9	it	
468	34	the food	
189. Sentence	Head	Text	Context
179	3 (gov)	a wafer of lembas	
179	9	it	
190. Sentence	Head	Text	Context
179	5 (gov)	lembas	
179	12	they	
179	15	their	
191. Sentence	Head	Text	Context
294	9 (gov)	the best I can	
179	11	best they could with their parched mouths	
296	14	it	
297	4	it	
298	2	it	
192. Sentence	Head	Text	Context
263	29 (gov)	only a grey light	
180	2	The light , though no more than a grey dusk	
193. Sentence	Head	Text	Context
180	7 (gov)	more than a grey dusk	
180	16	them	
180	20	they	
182	5	they	
183	2	they	
183	5	they	
194. Sentence	Head	Text	Context
180	25 (gov)	the valley between the mountains	
183	39	the valley	
215	12	the valley	
220	22	the valley	
236	10	the valley	
302	24	the valley	
318	5	the valley	
322	11	the valley	
379	7	the valley	
195. Sentence	Head	Text	Context
182	4 (gov)	its stony course	
182	12	its	
183	9	it	
184	1	It	
196. Sentence	Head	Text	Context
184	25 (gov)	Isenmouthe	
444	30	a narrow gap : Carach Angren , the Isenmouthe , beyond which lay the deep dale of Udun	
444	36	the Isenmouthe	
444	36	Isenmouthe	
446	19	the gap	
448	56	the Isenmouthe	
510	28	the Isenmouthe	
197. Sentence	Head	Text	Context
184	32 (gov)	Carach Angren	
444	33	Carach Angren	
450	35	Carach Angren	
198. Sentence	Head	Text	Context
185	11 (gov)	such a path	
190	20	the path	
196	18	the path	
218	9	the path	
199. Sentence	Head	Text	Context
186	14 (gov)	their hunters	
186	18	them	
187	15	those they	
189	3	they	
189	18	they	
190	4	their	
190	10	they	
190	29	they	
190	31	their	
191	54	their	
192	1	They	
192	10	they	
192	16	them	
200. Sentence	Head	Text	Context
187	6 (gov)	the plain	
275	7	the plain	
448	50	the plain	
576	20	the plain , when Frodo s strength began to give out and his will wavered	
576	20	the plain	
582	6	the plain	
583	6	it	
201. Sentence	Head	Text	Context
189	17 (gov)	some time	
189	21	it	
258	6	the time	
390	11	time	
202. Sentence	Head	Text	Context
190	5 (gov)	their left	
195	7	the left	
195	14	it	
196	2	it	
197	4	it	
203. Sentence	Head	Text	Context
191	19 (gov)	upwards	
442	15	upwards	
204. Sentence	Head	Text	Context
192	8 (gov)	more than an hour	
414	26	hour	
414	28	hour	
205. Sentence	Head	Text	Context
209	2 (gov)	The water	
194	1	Water trickling .	
209	4	cool but not icy	
209	4	cool	
209	10	it	
210	2	it	
478	4	the water	
478	7	it	
206. Sentence	Head	Text	Context
196	32 (gov)	the dead stones	
223	27	the stones	
258	44	stones	
319	8	stones	
207. Sentence	Head	Text	Context
199	1 (gov)	he	
201	2	he	
208. Sentence	Head	Text	Context
391	3 (gov)	those two	
203	10	two	
261	7	two	
306	3	two	
309	2	two	
414	22	two	
491	12	two of him	
543	9	two	
209. Sentence	Head	Text	Context
203	7 (gov)	room enough for two	
205	5	it	
205	14	its	
210. Sentence	Head	Text	Context
207	4 (gov)	we	
207	7	our	
207	14	our	
211. Sentence	Head	Text	Context
207	6 (gov)	trust our luck together	
208	8	it	
212. Sentence	Head	Text	Context
207	8 (gov)	our luck together	
455	8	our luck	
213. Sentence	Head	Text	Context
211	4 (gov)	their fill	
212	2	that	
214. Sentence	Head	Text	Context
211	10 (gov)	his water-bottle	
507	2	The water-bottle	
215. Sentence	Head	Text	Context
280	20 (gov)	beyond the	
212	16	the broadening of the road and the beginnings of a rough wall along its edge	
212	32	them	
212	34	they	
216. Sentence	Head	Text	Context
213	4 (gov)	we	
214	2	we	
217. Sentence	Head	Text	Context
216	4 (gov)	just about enough strength left to find some hole away up there	
219	1	They	
220	2	their	
220	4	they	
218. Sentence	Head	Text	Context
218	2 (gov)	The river-bed	
219	5	it	
219	11	it	
219. Sentence	Head	Text	Context
220	3 (gov)	their surprise	
221	2	its	
221	16	it	
220. Sentence	Head	Text	Context
220	8 (gov)	dark pools fed by threads of water trickling down from some source higher up the valley	
236	7	the pools in the valley	
221. Sentence	Head	Text	Context
223	10 (gov)	the other side of the valley low scrubby trees lurked and clung , coarse grey grass-tussocks fought with the stones , and withered mosses crawled on them ; and everywhere great writhing	
303	18	the westward side	
522	6	the other side	
222. Sentence	Head	Text	Context
223	23 (gov)	coarse grey grass-tussocks fought with the stones	
223	34	them	
223. Sentence	Head	Text	Context
224	1 (gov)	Some	
225	11	them	
225	22	their	
224. Sentence	Head	Text	Context
226	17 (gov)	a red eye-shaped blotch	
227	9	his	
225. Sentence	Head	Text	Context
227	2 (gov)	Orc-gear s no good	
230	1	They	
230	11	they	
230	20	they	
226. Sentence	Head	Text	Context
230	8 (gov)	a narrow shelving ravine	
258	31	the ravine	
302	12	the ravine	
227. Sentence	Head	Text	Context
262	28 (gov)	their sight	
230	25	sight of the last craggy ridge	
228. Sentence	Head	Text	Context
253	6 (gov)	the brambles	
233	13	brambles that hung down like a mat over a low rock-face	
229. Sentence	Head	Text	Context
235	24 (gov)	Faramir	
238	7	his	
230. Sentence	Head	Text	Context
235	5 (gov)	the precious lembas for the evil days	
235	12	they	
235	41	they	
236	1	They	
236	13	they	
231. Sentence	Head	Text	Context
239	10 (gov)	Gorgoroth	
263	36	Gorgoroth	
442	49	Gorgoroth	
232. Sentence	Head	Text	Context
243	9 (gov)	the words	
403	40	words	
233. Sentence	Head	Text	Context
248	3 (gov)	peeping among the cloud-wrack above a dark tor	
249	4	it	
234. Sentence	Head	Text	Context
248	6 (gov)	the cloud-wrack above a dark tor	
249	6	his	
249	10	he	
249	23	him	
250	13	him	
251	1	His	
252	7	his	
252	13	his	
252	20	him	
253	1	He	
253	9	himself	
253	20	he	
253	22	himself	
235. Sentence	Head	Text	Context
250	19 (gov)	the Shadow	
250	23	only a small	
236. Sentence	Head	Text	Context
250	35 (gov)	ever	
250	37	its	
237. Sentence	Head	Text	Context
251	2 (gov)	His song in the Tower	
251	8	defiance rather than hope	
238. Sentence	Head	Text	Context
252	15 (gov)	his master s	
254	1	They	
239. Sentence	Head	Text	Context
253	27 (gov)	a deep untroubled sleep	
256	2	His sleep	
257	3	his sleep	
240. Sentence	Head	Text	Context
256	14 (gov)	waking	
256	16	him	
416	5	waking	
241. Sentence	Head	Text	Context
258	18 (gov)	a morsel of food	
258	34	it	
242. Sentence	Head	Text	Context
260	9 (gov)	a way	
288	4	no way	
291	1	It	
293	8	it now	
301	11	their way	
301	22	its	
243. Sentence	Head	Text	Context
264	6 (gov)	the ground	
276	4	the ground	
525	5	the ground	
589	25	the ground	
244. Sentence	Head	Text	Context
265	5 (gov)	forty	
265	22	its	
265	32	its	
266	1	Its	
266	8	it	
267	2	it	
245. Sentence	Head	Text	Context
265	13 (gov)	Mount Doom	
265	15	its	
246. Sentence	Head	Text	Context
265	16 (gov)	its feet founded in ashen	
516	42	feet	
533	32	their feet	
557	5	their feet	
247. Sentence	Head	Text	Context
267	12 (gov)	a thunder-cloud	
267	15	the veils of Barad-dur that was reared far away upon a long spur of the Ashen Mountains	
248. Sentence	Head	Text	Context
268	3 (gov)	The Dark Power	
281	23	the Dark Power	
281	26	its	
282	1	Its	
282	9	its	
282	16	its	
249. Sentence	Head	Text	Context
268	11 (gov)	the Eye	
311	20	the Eye	
378	15	his eye	
250. Sentence	Head	Text	Context
268	24 (gov)	a bright sword	
268	32	it	
268	39	it	
268	49	its	
581	14	his sword	
251. Sentence	Head	Text	Context
469	17 (gov)	his face	
268	31	a stern and kingly face it saw , and for a while it gave little thought to other things ; and all its great stronghold	
533	14	his face	
252. Sentence	Head	Text	Context
268	45 (gov)	other things	
277	8	things at all	
253. Sentence	Head	Text	Context
268	67 (gov)	a brooding gloom	
550	12	the gloom	
254. Sentence	Head	Text	Context
445	35 (gov)	their Lord	
271	5	the Lord of this realm	
271	12	his	
271	15	his	
272	3	he	
255. Sentence	Head	Text	Context
281	27 (gov)	its armies	
272	2	armies he had	
256. Sentence	Head	Text	Context
273	21 (gov)	camps	
273	21	camps , some of tents , some ordered like small towns	
450	17	camps	
257. Sentence	Head	Text	Context
275	3 (gov)	Barely a mile	
275	8	it	
276	2	it	
258. Sentence	Head	Text	Context
276	16 (gov)	a wide road	
276	19	it	
276	28	it	
259. Sentence	Head	Text	Context
277	6 (gov)	the look of things at all	
278	6	it	
260. Sentence	Head	Text	Context
278	1 (gov)	Pretty hopeless	
280	2	he	
261. Sentence	Head	Text	Context
279	10 (gov)	my eyes are all wrong	
325	3	eyes	
489	7	his eyes	
500	3	your eyes	
262. Sentence	Head	Text	Context
280	32 (gov)	Lake Nurnen	
280	39	that	
263. Sentence	Head	Text	Context
280	47 (gov)	tributary lands	
415	19	the lands	
264. Sentence	Head	Text	Context
281	14 (gov)	the musterings of long-planned war	
281	36	them	
283	6	them	
283	15	them	
265. Sentence	Head	Text	Context
282	3 (gov)	Its first moves	
282	7	the first feelers of its strength	
266. Sentence	Head	Text	Context
287	9 (gov)	we	
289	2	we	
289	16	we	
290	2	we	
267. Sentence	Head	Text	Context
448	20 (gov)	only a mile	
304	3	a mile or more they saw , huddled in a hollow at the cliff s foot	
268. Sentence	Head	Text	Context
304	20 (gov)	the orc-hold that they had guessed	
306	11	the orc-hold	
318	8	the orc-hold	
269. Sentence	Head	Text	Context
304	31 (gov)	a wall	
443	31	a wall	
270. Sentence	Head	Text	Context
305	11 (gov)	the hobbits crept by cautiously	
305	20	they	
306	1	They	
306	17	them	
306	20	they	
306	33	they	
307	2	they	
271. Sentence	Head	Text	Context
305	37 (gov)	the old water-course	
443	3	the water-course	
475	21	the water-course	
272. Sentence	Head	Text	Context
306	5 (gov)	three	
560	1	Three	
561	9	it	
273. Sentence	Head	Text	Context
310	1 (gov)	One	
310	16	it	
274. Sentence	Head	Text	Context
310	21 (gov)	a small breed	
310	23	black-skinned	
275. Sentence	Head	Text	Context
311	6 (gov)	a big fighting-orc	
311	2	The other	
327	3	the other	
379	2	The other	
276. Sentence	Head	Text	Context
311	9 (gov)	those of Shagrat s company	
312	1	He	
312	7	his	
277. Sentence	Head	Text	Context
313	3 (gov)	they	
313	12	they	
313	18	their	
278. Sentence	Head	Text	Context
314	2 (gov)	twenty	
422	4	twenty	
423	1	It	
423	6	a good point at which to cross	
510	21	the point	
510	29	twenty	
598	18	twenty	
279. Sentence	Head	Text	Context
315	1 (gov)	Nar !	
316	1	it	
280. Sentence	Head	Text	Context
317	2 (gov)	I m going home .	
318	1	It	
281. Sentence	Head	Text	Context
321	5 (gov)	the scent	
322	1	It	
356	5	the scent	
357	1	It	
282. Sentence	Head	Text	Context
323	9 (gov)	little snufflers	
326	7	them	
283. Sentence	Head	Text	Context
324	4 (gov)	the big orc	
377	3	The big orc	
284. Sentence	Head	Text	Context
328	1 (gov)	Garn	
359	1	Garn	
360	3	him	
363	1	He	
285. Sentence	Head	Text	Context
331	3 (gov)	the soldier	
341	3	the soldier	
357	9	the soldier	
364	7	the soldier	
286. Sentence	Head	Text	Context
334	2 (gov)	they	
337	1	They	
337	4	their	
287. Sentence	Head	Text	Context
335	1 (gov)	Ar !	
342	1	Ar !	
288. Sentence	Head	Text	Context
336	3 (gov)	the tracker	
337	10	it	
346	3	the tracker	
348	11	it	
355	16	the tracker	
360	7	the tracker	
378	3	the tracker , springing behind a stone	
378	3	the tracker	
289. Sentence	Head	Text	Context
337	5 (gov)	their heads	
521	25	their heads	
537	12	their heads	
562	9	their heads	
290. Sentence	Head	Text	Context
338	2 (gov)	some of the bosses	
338	10	their	
339	2	that	
291. Sentence	Head	Text	Context
338	11 (gov)	their skins	
573	19	your skins	
292. Sentence	Head	Text	Context
343	5 (gov)	isn t	
344	1	That	
344	17	it	
293. Sentence	Head	Text	Context
349	2 (gov)	That gobbler with the flapping hands ?	
352	2	he	
353	2	him	
354	4	he	
354	13	he	
355	7	him	
355	10	him	
356	1	He	
356	14	he	
357	3	his	
358	6	he	
358	11	him	
358	27	he	
394	9	that gobbler	
294. Sentence	Head	Text	Context
370	3 (gov)	The other halted	
370	6	his	
372	1	he	
295. Sentence	Head	Text	Context
373	17 (gov)	your own folk	
554	3	your folk	
296. Sentence	Head	Text	Context
374	5 (gov)	your filthy Shriekers	
374	9	they	
375	7	them	
376	1	They	
297. Sentence	Head	Text	Context
376	5 (gov)	Number One	
376	15	it	
298. Sentence	Head	Text	Context
377	11 (gov)	him	
378	14	his	
378	17	he	
378	22	he	
299. Sentence	Head	Text	Context
383	12 (gov)	our	
386	1	We	
386	16	our	
386	19	we	
300. Sentence	Head	Text	Context
386	8 (gov)	a very narrow escape	
387	2	that	
387	5	the spirit of Mordor , Sam	
387	12	it	
387	19	it	
389	10	it	
301. Sentence	Head	Text	Context
390	3 (gov)	us	
391	6	us	
391	16	we	
302. Sentence	Head	Text	Context
392	5 (gov)	another long silence	
393	3	it	
303. Sentence	Head	Text	Context
395	6 (gov)	Gollum wasn t dead yet	
491	6	it wasn t him	
491	6	wasn t him	
304. Sentence	Head	Text	Context
399	14 (gov)	it	
401	5	it	
305. Sentence	Head	Text	Context
404	13 (gov)	Sam s hand	
404	16	it	
407	5	it	
409	1	It	
410	2	it	
411	6	it	
411	12	my hand	
306. Sentence	Head	Text	Context
406	5 (gov)	we	
407	9	we	
409	6	we	
307. Sentence	Head	Text	Context
407	19 (gov)	the slinking	
408	1	He	
308. Sentence	Head	Text	Context
407	26 (gov)	vain	
579	32	vain	
309. Sentence	Head	Text	Context
411	19 (gov)	both hands	
482	24	his hands	
598	11	his hands	
310. Sentence	Head	Text	Context
413	5 (gov)	an orc-blade	
416	2	his	
311. Sentence	Head	Text	Context
414	9 (gov)	the night in the pathless land	
436	8	the night	
516	25	the night	
312. Sentence	Head	Text	Context
414	23 (gov)	the two hobbits	
415	22	they	
313. Sentence	Head	Text	Context
414	37 (gov)	the stony valley	
430	35	this valley	
314. Sentence	Head	Text	Context
420	2 (gov)	Rivendell before I set out	
420	28	it	
315. Sentence	Head	Text	Context
424	6 (gov)	we	
424	10	we	
424	15	we	
425	4	we	
427	22	we	
430	9	we	
430	30	we	
316. Sentence	Head	Text	Context
425	8 (gov)	twelve	
513	4	twelve	
317. Sentence	Head	Text	Context
431	14 (gov)	the Elves waybread	
467	11	the waybread	
318. Sentence	Head	Text	Context
432	18 (gov)	a deep breath	
541	4	his breath	
566	16	his breath	
319. Sentence	Head	Text	Context
434	5 (gov)	another march	
435	1	It	
538	27	the march	
586	24	their march	
320. Sentence	Head	Text	Context
436	1 (gov)	They	
438	16	they	
438	18	themselves	
321. Sentence	Head	Text	Context
442	2 (gov)	The trough between the mountains and the Morgai	
442	13	it	
442	41	it	
322. Sentence	Head	Text	Context
443	1 (gov)	Ahead the water-course	
444	3	it	
323. Sentence	Head	Text	Context
443	19 (gov)	the main range	
447	20	the main range	
324. Sentence	Head	Text	Context
443	25 (gov)	a high barren spur	
448	42	the spur	
325. Sentence	Head	Text	Context
444	45 (gov)	Udun	
447	41	Udun	
554	8	Udun	
582	14	Udun	
326. Sentence	Head	Text	Context
444	43 (gov)	the deep dale of Udun	
445	3	that dale	
447	39	the dale of Udun	
327. Sentence	Head	Text	Context
445	12 (gov)	deep armouries	
445	34	their	
328. Sentence	Head	Text	Context
445	15 (gov)	the servants of Mordor	
445	28	their	
329. Sentence	Head	Text	Context
445	41 (gov)	haste great forces	
584	24	his forces	
330. Sentence	Head	Text	Context
584	11 (gov)	the Captains of the West	
445	48	the Captains of the West	
584	16	advancing and the Dark Lord	
584	16	advancing	
584	23	his	
331. Sentence	Head	Text	Context
446	3 (gov)	the out-thrust spurs forts and towers were built	
446	12	watch-fires burned ; and all across the gap	
332. Sentence	Head	Text	Context
446	21 (gov)	an earth-wall	
446	31	that	
333. Sentence	Head	Text	Context
447	27 (gov)	Durthang	
588	11	Durthang	
334. Sentence	Head	Text	Context
448	2 (gov)	A road	
448	15	it	
448	28	it	
449	8	it	
335. Sentence	Head	Text	Context
449	3 (gov)	the hobbits as they looked out	
449	12	their	
450	4	their	
450	12	they	
336. Sentence	Head	Text	Context
450	19 (gov)	troops moving	
584	5	troops	
337. Sentence	Head	Text	Context
451	1 (gov)	We	
452	2	we	
452	6	we	
452	30	we	
453	1	We	
454	2	we	
455	1	We	
455	7	our	
456	1	We	
456	6	ourselves	
457	1	Our	
458	1	We	
338. Sentence	Head	Text	Context
452	18 (gov)	the only road to take	
452	28	it	
339. Sentence	Head	Text	Context
468	25 (gov)	their water	
467	4	water and an additional wafer of the waybread	
340. Sentence	Head	Text	Context
469	13 (gov)	his breathing	
470	1	It	
470	11	it	
			
