1. Sentence	Head	Text	Context
1	2 (gov)	7	
1	21	it	
2. Sentence	Head	Text	Context
1	15 (gov)	Edoras	
10	14	Edoras	
53	5	Edoras	
503	13	Edoras	
3. Sentence	Head	Text	Context
531	5 (gov)	the fighting Uruk-hai	
532	4	him	
532	6	his	
532	10	he	
539	5	the fighting Uruk-hai	
543	4	the Uruk-hai	
546	9	him	
4. Sentence	Head	Text	Context
1	33 (gov)	Rohan	
9	8	Rohan	
345	4	Rohan	
5. Sentence	Head	Text	Context
1	4 (gov)	Chapter 7 HELM S DEEP The sun	
1	12	they	
1	24	their	
2	18	they	
75	4	Helm s	
130	6	Helm s	
153	7	Helm s	
6. Sentence	Head	Text	Context
2	14 (gov)	White Mountains	
34	38	White Mountains	
7. Sentence	Head	Text	Context
2	14 (gov)	the White Mountains	
34	38	the White Mountains , three jagged horns	
34	38	the White Mountains	
8. Sentence	Head	Text	Context
2	17 (gov)	this they followed , up and down in a green country , crossing small swift streams by many fords	
3	5	their	
3	16	they	
4	7	them	
7	3	them	
8	7	they	
8	13	they	
9. Sentence	Head	Text	Context
2	27 (gov)	a green country	
203	2	This country	
10. Sentence	Head	Text	Context
538	9 (gov)	our	
539	1	We	
11. Sentence	Head	Text	Context
3	9 (gov)	the Misty Mountains	
20	19	the Misty Mountains , a shadow that crept down slowly from the Wizard s Vale	
20	19	the Misty Mountains	
20	19	Misty Mountains	
20	22	a shadow that crept down slowly from the Wizard s Vale	
83	24	a shadow that fled and passed from sight	
95	20	the mountains	
149	19	the mountains	
201	10	the mountains	
503	21	the mountains	
626	13	the mountains	
12. Sentence	Head	Text	Context
543	1 (gov)	We	
543	6	we	
544	1	We	
13. Sentence	Head	Text	Context
4	2 (gov)	The sun	
33	2	The sun	
405	26	the sun	
594	4	the sun	
14. Sentence	Head	Text	Context
6	2 (gov)	The host	
92	2	The host	
166	2	The host	
15. Sentence	Head	Text	Context
546	6 (gov)	the new day	
547	6	it	
16. Sentence	Head	Text	Context
9	6 (gov)	the steeds of Rohan	
9	1	Swift and enduring	
17. Sentence	Head	Text	Context
10	1 (gov)	Forty	
10	5	it	
18. Sentence	Head	Text	Context
10	20 (gov)	Isen	
76	7	Isen	
92	13	Isen	
110	32	Isen	
19. Sentence	Head	Text	Context
10	37 (gov)	Saruman	
46	8	Saruman	
46	25	he	
119	5	Saruman	
132	1	Saruman	
139	30	Saruman	
405	16	Saruman	
434	3	Saruman	
601	8	Saruman	
20. Sentence	Head	Text	Context
10	2 (gov)	Forty leagues	
10	23	they	
11	4	them	
12	3	they	
12	7	their	
13	1	They	
13	21	their	
13	26	them	
14	15	they	
14	18	their	
15	1	They	
15	7	they	
15	14	they	
15	22	them	
17	11	they	
21. Sentence	Head	Text	Context
10	17 (gov)	the fords of the Isen	
76	5	the Fords of Isen	
110	30	the Fords of Isen	
22. Sentence	Head	Text	Context
10	28 (gov)	the king	
62	11	the king	
79	11	the king	
79	15	he	
131	9	the king	
139	17	the king	
187	2	The king	
187	4	his	
192	2	The king	
192	7	his	
414	2	The king , the king !	
414	2	The king	
414	5	the king	
416	5	their king	
481	4	the king , dark against a narrow window	
481	4	the king	
483	1	he	
510	10	the king	
530	4	your king	
534	2	The king	
534	7	his	
575	6	the king	
576	1	His	
576	10	his	
576	14	his	
577	2	his	
577	13	him	
586	6	the king	
586	8	his	
601	14	the king	
23. Sentence	Head	Text	Context
11	1 (gov)	Night	
45	3	night	
93	1	Night	
579	1	Night	
24. Sentence	Head	Text	Context
12	2 (gov)	last	
42	4	last , but too late	
42	4	last	
257	3	last	
522	2	last	
25. Sentence	Head	Text	Context
12	8 (gov)	their camp	
45	12	our camp	
26. Sentence	Head	Text	Context
556	13 (gov)	he	
556	25	his	
559	8	he	
27. Sentence	Head	Text	Context
13	15 (gov)	the western plain	
76	15	the plain	
28. Sentence	Head	Text	Context
556	29 (gov)	many of the wild men	
556	40	their	
29. Sentence	Head	Text	Context
14	9 (gov)	the starry sky	
19	16	the sky	
237	2	The sky	
334	2	The sky	
556	53	the sky	
578	5	the sky	
30. Sentence	Head	Text	Context
15	4 (gov)	no fires	
222	7	fires	
31. Sentence	Head	Text	Context
15	20 (gov)	mounted guards about them	
54	14	his guards	
352	20	the guards	
32. Sentence	Head	Text	Context
309	14 (gov)	the shadows	
15	33	shadows in the	
33. Sentence	Head	Text	Context
15	39 (gov)	the land	
27	23	the land	
96	4	that land	
96	6	it	
97	5	it	
132	7	this land	
596	2	The land	
34. Sentence	Head	Text	Context
17	4 (gov)	the horns	
606	6	the horns	
35. Sentence	Head	Text	Context
18	10 (gov)	a heaviness	
18	16	it	
36. Sentence	Head	Text	Context
18	14 (gov)	the air	
31	15	the air	
492	3	the air	
37. Sentence	Head	Text	Context
19	3 (gov)	The rising sun	
19	9	it	
19	12	it	
605	18	the rising sun	
38. Sentence	Head	Text	Context
566	1 (gov)	Many of the Orcs	
566	6	themselves	
566	8	their	
566	12	their	
566	15	their	
39. Sentence	Head	Text	Context
136	31 (gov)	the mountains feet	
20	15	the feet of the Misty Mountains , a shadow that crept down slowly from the Wizard s Vale	
40. Sentence	Head	Text	Context
21	1 (gov)	Gandalf	
29	12	Gandalf	
71	6	Gandalf	
90	17	Gandalf	
115	6	Gandalf	
124	16	Gandalf	
507	32	Gandalf	
509	7	Gandalf	
616	1	Gandalf	
41. Sentence	Head	Text	Context
376	6 (gov)	Master Legolas	
21	6	Legolas	
22	11	Legolas	
24	7	Legolas	
24	13	his	
24	16	his	
135	3	Legolas	
199	1	Legolas	
199	9	his	
206	8	Legolas	
330	2	Legolas	
361	3	Legolas	
386	6	Legolas	
392	2	Legolas	
446	7	Legolas	
447	1	His	
447	13	he	
447	18	he	
448	12	he	
450	11	he	
450	13	he	
450	16	his	
451	3	his	
452	16	him	
453	5	Legolas	
453	9	his	
453	17	him	
455	12	him	
456	8	he	
456	15	his	
456	18	his	
457	5	Legolas	
462	7	Legolas	
463	1	He	
464	5	he	
465	2	he	
468	8	Legolas	
469	5	he	
473	10	Legolas	
476	3	his	
476	5	he	
477	3	he	
478	4	him	
478	8	him	
518	1	Legolas	
518	4	him	
618	2	Legolas	
42. Sentence	Head	Text	Context
21	9 (gov)	Eomer	
40	2	Eomer	
41	1	he	
51	3	Eomer	
52	2	him	
53	1	He	
79	5	Eomer	
82	1	He	
83	5	he	
84	21	him	
128	8	Eomer	
139	10	Eomer	
152	9	Eomer	
157	15	Eomer	
173	11	Eomer	
184	6	Eomer	
191	2	Eomer	
191	4	his	
193	14	Eomer	
193	21	he	
266	1	Eomer	
275	2	Eomer	
278	2	Eomer	
290	4	Eomer	
298	15	Eomer	
300	1	He	
308	8	Eomer	
308	13	him	
308	24	him	
314	1	Eomer	
314	4	his	
314	13	his	
322	12	Eomer	
347	5	Eomer	
386	10	Eomer	
395	1	Eomer	
408	6	Eomer	
427	7	Eomer	
476	8	Eomer	
485	2	Eomer	
487	15	Eomer	
43. Sentence	Head	Text	Context
567	6 (gov)	the echoes	
568	15	the echoes	
44. Sentence	Head	Text	Context
22	5 (gov)	the keen eyes of your fair kindred , Legolas , he said	
24	14	his eyes	
27	10	my eyes	
45. Sentence	Head	Text	Context
22	9 (gov)	your fair kindred	
22	13	he	
46. Sentence	Head	Text	Context
23	11 (gov)	Isengard	
46	2	Isengard	
53	10	Isengard	
71	22	Isengard	
120	11	Isengard	
223	4	Isengard	
255	16	Isengard	
339	8	Isengard	
405	5	Isengard	
507	8	Isengard	
508	1	His	
582	21	Isengard	
622	4	Isengard	
47. Sentence	Head	Text	Context
574	1 (gov)	Helm for Theoden King !	
575	3	that	
48. Sentence	Head	Text	Context
24	18 (gov)	his long hand	
219	8	my hand	
49. Sentence	Head	Text	Context
25	5 (gov)	a darkness	
26	6	it , great shapes	
26	6	it	
136	13	the darkness	
249	9	the darkness	
50. Sentence	Head	Text	Context
576	11 (gov)	his shield	
609	2	His shield	
51. Sentence	Head	Text	Context
26	17 (gov)	the river	
45	9	the river	
52. Sentence	Head	Text	Context
27	16 (gov)	a veiling shadow that some power lays upon the land	
27	26	it	
28	1	It	
53. Sentence	Head	Text	Context
581	8 (gov)	they	
582	5	they	
582	11	they	
582	15	they	
583	2	them from the Deep	
586	2	they	
54. Sentence	Head	Text	Context
239	8 (gov)	the eastward hills	
28	15	the hills	
94	2	The hills	
95	35	the hills	
101	32	the hills	
130	23	the hills	
406	9	the hills	
569	8	the hills	
585	11	the hills	
625	4	the hills	
55. Sentence	Head	Text	Context
29	3 (gov)	us	
31	6	their riding	
56. Sentence	Head	Text	Context
30	6 (gov)	a black night	
29	7	a very storm of Mordor	
30	1	It	
57. Sentence	Head	Text	Context
31	4 (gov)	the second day of their riding	
149	3	that day	
151	1	It	
208	19	day	
401	5	the day	
425	2	day	
426	2	it	
426	17	it	
428	5	it	
590	20	the day	
58. Sentence	Head	Text	Context
32	6 (gov)	the dark clouds	
238	3	the clouds	
294	2	The clouds	
59. Sentence	Head	Text	Context
34	40 (gov)	three	
182	10	three	
197	22	three	
347	1	Three	
347	10	three	
60. Sentence	Head	Text	Context
34	2 (gov)	The spears of the Riders	
594	14	their spears	
61. Sentence	Head	Text	Context
34	5 (gov)	the Riders	
34	29	they	
108	2	The Riders	
138	17	the Riders	
138	22	them	
158	9	the Riders	
159	6	them , a high shadow	
159	6	them	
160	2	they	
160	8	them	
441	4	the Riders	
572	2	the Riders	
589	11	the Riders	
612	2	the Riders	
62. Sentence	Head	Text	Context
97	33 (gov)	the light	
34	15	light kindled the steep faces of the peaks of Thrihyrne	
335	3	the light	
63. Sentence	Head	Text	Context
587	1 (gov)	Captains and champions	
587	8	them	
64. Sentence	Head	Text	Context
34	19 (gov)	the steep faces of the peaks of Thrihyrne	
566	9	their faces	
628	7	their faces	
65. Sentence	Head	Text	Context
588	2 (gov)	Neither orc nor man	
588	6	them	
589	1	Their	
589	14	their	
590	1	They	
590	14	them	
593	5	them	
594	13	their	
595	2	they	
595	6	their	
595	10	they	
598	21	their	
599	4	them	
602	1	They	
602	16	them	
602	21	they	
603	2	they	
604	22	their	
66. Sentence	Head	Text	Context
94	11 (gov)	Thrihyrne	
34	24	Thrihyrne	
97	16	the Thrihyrne	
67. Sentence	Head	Text	Context
34	34 (gov)	the northernmost arm of the White Mountains , three jagged horns	
456	19	his arm	
68. Sentence	Head	Text	Context
589	15 (gov)	their faces to the valley	
589	6	the swords and spears of the Riders	
69. Sentence	Head	Text	Context
34	42 (gov)	three jagged horns	
585	7	horns	
70. Sentence	Head	Text	Context
34	46 (gov)	the sunset	
83	15	the sunset , a wind over the grass , a shadow that fled and passed from sight	
83	15	the sunset	
83	18	a wind over the grass , a shadow that fled and passed from sight	
71. Sentence	Head	Text	Context
35	6 (gov)	the last red glow men in the vanguard	
35	20	them	
36	1	They	
72. Sentence	Head	Text	Context
35	16 (gov)	a horseman riding back towards them	
36	4	him	
37	1	He	
38	2	he	
38	5	his	
39	3	he	
73. Sentence	Head	Text	Context
38	6 (gov)	his horse	
54	20	his horse	
576	2	His horse	
74. Sentence	Head	Text	Context
43	1 (gov)	Things	
385	9	things	
456	1	Things	
75. Sentence	Head	Text	Context
44	1 (gov)	We	
45	11	our	
46	28	us	
47	1	We	
76. Sentence	Head	Text	Context
44	5 (gov)	yesterday	
171	3	yesterday	
77. Sentence	Head	Text	Context
597	5 (gov)	the green dale	
597	9	its	
78. Sentence	Head	Text	Context
46	13 (gov)	the wild hillmen	
321	17	the hillmen	
321	19	they	
79. Sentence	Head	Text	Context
49	3 (gov)	Westfold	
171	19	Westfold	
182	16	Westfold	
370	16	Westfold	
625	10	Westfold	
80. Sentence	Head	Text	Context
49	1 (gov)	Erkenbrand of Westfold	
49	9	he	
49	13	his	
81. Sentence	Head	Text	Context
49	8 (gov)	those men he could gather towards his fastness	
191	5	his men	
82. Sentence	Head	Text	Context
49	14 (gov)	his fastness	
100	19	this fastness	
107	21	the fastness	
129	14	the fastness	
83. Sentence	Head	Text	Context
49	16 (gov)	Helm	
80	4	Helm	
96	7	Helm	
104	29	Helm	
104	33	Helm	
106	6	Helm	
110	39	Helm	
153	23	Helm	
161	8	Helm	
177	8	Helm	
186	10	Helm	
367	1	Helm	
368	1	Helm	
564	20	Helm	
570	1	Helm	
571	1	Helm	
573	1	Helm	
84. Sentence	Head	Text	Context
98	11 (gov)	the Deep	
49	18	Deep	
96	9	Deep	
98	11	Deep	
101	17	the Deep	
105	6	the Deeping-coomb	
110	41	Deep	
142	8	the Deeping-coomb	
182	8	the Deep	
194	8	the Deep	
197	35	the Deep	
348	7	the Deep	
352	10	the Deep	
365	6	the Deep	
372	26	the Deep	
441	14	the Deep	
441	14	Deep	
443	7	the Deep	
454	25	the Deep	
478	16	the Deep	
487	9	the Deep	
583	5	the Deep	
595	15	the Deeping-coomb	
85. Sentence	Head	Text	Context
602	5 (gov)	Helm s Gate until all above the Dike was empty of them	
602	20	it	
86. Sentence	Head	Text	Context
50	2 (gov)	The rest	
313	2	The rest	
453	14	the rest	
87. Sentence	Head	Text	Context
591	3 (gov)	King Theoden	
54	1	Theoden	
54	13	his	
54	17	he	
54	19	his	
68	11	Theoden	
71	2	Theoden	
71	14	he	
72	2	he	
73	3	Theoden	
74	1	he	
116	2	Theoden	
122	15	Theoden	
146	6	Theoden	
155	13	Theoden	
175	9	Theoden	
424	13	Theoden	
499	8	Theoden	
504	14	Theoden	
591	11	his	
88. Sentence	Head	Text	Context
54	9 (gov)	the man s sight behind his guards	
60	2	The man	
61	1	He	
61	3	himself	
62	2	he	
62	6	his	
63	2	me , lord	
64	1	he	
69	3	this man	
89. Sentence	Head	Text	Context
605	8 (gov)	a rider	
607	2	him	
609	1	His	
610	2	he	
610	10	he	
610	13	his	
90. Sentence	Head	Text	Context
55	7 (gov)	Ceorl	
56	1	he	
91. Sentence	Head	Text	Context
58	3 (gov)	The last host of the Eorlingas	
59	1	It	
92. Sentence	Head	Text	Context
607	13 (gov)	a thousand men on foot	
607	17	their	
607	21	their	
608	2	them	
93. Sentence	Head	Text	Context
167	6 (gov)	their joy	
60	7	joy and wonder	
500	26	the joy	
94. Sentence	Head	Text	Context
610	18 (gov)	a great black horn	
623	3	the horn	
95. Sentence	Head	Text	Context
66	8 (gov)	Meduseld	
67	2	it	
96. Sentence	Head	Text	Context
614	4 (gov)	the White Rider	
627	3	The White Rider	
627	12	his coming	
628	9	him	
97. Sentence	Head	Text	Context
617	1 (gov)	Mithrandir	
617	3	Mithrandir	
98. Sentence	Head	Text	Context
71	10 (gov)	a short way	
112	10	this way	
136	17	their way	
442	4	their way	
469	9	this way	
622	9	this way	
99. Sentence	Head	Text	Context
624	2 (gov)	through	
627	6	them	
100. Sentence	Head	Text	Context
77	7 (gov)	a while	
445	16	a while	
465	8	a while	
101. Sentence	Head	Text	Context
78	1 (gov)	Shadowfax	
82	6	Shadowfax	
626	3	Shadowfax	
102. Sentence	Head	Text	Context
79	3 (gov)	Aragorn	
135	1	Aragorn	
145	12	Aragorn	
150	2	Aragorn	
266	3	Aragorn	
269	2	Aragorn	
275	4	Aragorn	
281	2	Aragorn	
290	6	Aragorn	
295	9	Aragorn	
314	9	Aragorn	
347	3	Aragorn	
386	8	Aragorn	
395	3	Aragorn	
399	1	Aragorn	
404	11	Aragorn	
425	10	Aragorn	
429	2	Aragorn	
435	2	Aragorn	
444	5	Aragorn	
448	10	Aragorn	
450	1	Aragorn	
455	1	Aragorn	
459	7	Aragorn	
463	8	Aragorn	
471	17	Aragorn	
475	1	Aragorn	
480	1	Aragorn	
482	6	Aragorn	
495	12	Aragorn	
502	16	Aragorn	
509	17	Aragorn	
516	8	Aragorn	
522	3	Aragorn	
534	12	Aragorn	
540	10	Aragorn	
546	12	Aragorn	
551	9	Aragorn	
556	10	Aragorn	
557	22	Aragorn	
561	1	Aragorn	
577	6	Aragorn	
615	2	Aragorn	
103. Sentence	Head	Text	Context
79	24 (gov)	Mark	
106	19	Mark	
502	13	Mark	
104. Sentence	Head	Text	Context
79	3 (gov)	Aragorn and Eomer	
347	3	Aragorn and Eomer	
386	8	Aragorn and Eomer	
105. Sentence	Head	Text	Context
79	24 (gov)	the Mark	
106	19	the Mark	
250	31	the Mark	
250	37	it	
279	4	the Mark	
335	12	the Mark	
411	19	the Mark	
421	19	the Mark	
502	13	the Mark	
106. Sentence	Head	Text	Context
82	14 (gov)	the bow	
199	10	his bow	
447	2	His bow	
107. Sentence	Head	Text	Context
83	21 (gov)	the grass , a shadow that fled and passed from sight	
83	21	the grass	
118	24	the grass	
120	1	It	
108. Sentence	Head	Text	Context
86	7 (gov)	Hama	
87	10	Hama	
90	5	Hama	
109. Sentence	Head	Text	Context
87	3 (gov)	That Gandalf Greyhame	
88	2	he	
110. Sentence	Head	Text	Context
124	4 (gov)	this need	
87	5	need of haste	
89	10	it	
125	2	it	
126	1	It	
217	4	the need of it	
111. Sentence	Head	Text	Context
89	1 (gov)	Wormtongue , were he here	
89	1	Wormtongue	
89	4	he	
121	5	Wormtongue	
122	6	Wormtongue	
122	12	him	
112. Sentence	Head	Text	Context
89	17 (gov)	the other	
91	9	the other	
113. Sentence	Head	Text	Context
92	8 (gov)	the road to the Fords of Isen and bent their course	
158	28	the road beside it	
114. Sentence	Head	Text	Context
92	13 (gov)	Isen and bent their course	
93	6	they	
115. Sentence	Head	Text	Context
95	13 (gov)	the Westfold Vale	
95	13	Westfold Vale	
95	17	a great bay in the mountains	
105	12	the Westfold Vale	
116. Sentence	Head	Text	Context
108	14 (gov)	the Coomb	
95	25	a green coomb	
153	18	the coomb	
156	1	It	
156	13	it	
603	11	the coomb	
117. Sentence	Head	Text	Context
95	31 (gov)	a gorge	
102	25	the gorge	
372	12	the gorge	
118. Sentence	Head	Text	Context
96	1 (gov)	Men of that land	
96	20	his	
119. Sentence	Head	Text	Context
125	13 (gov)	the North	
97	10	the north	
293	8	the North	
419	7	the North	
554	13	the North	
120. Sentence	Head	Text	Context
97	21 (gov)	the crowhaunted cliffs	
350	10	the cliffs	
353	15	the cliffs	
121. Sentence	Head	Text	Context
97	28 (gov)	either side	
274	3	that side	
283	4	the side	
122. Sentence	Head	Text	Context
247	4 (gov)	Helm s Deep	
98	2	Helm s Gate , before the mouth of the Deep	
99	3	its	
114	15	Helm s Gate	
124	20	Helm s Gate	
167	17	Helm s Gate	
591	6	Helm s Gate	
123. Sentence	Head	Text	Context
98	8 (gov)	the mouth of the Deep	
478	13	the mouth of the Deep	
124. Sentence	Head	Text	Context
99	7 (gov)	high walls	
179	10	the walls	
240	9	the walls	
242	8	the walls	
261	16	the walls	
298	9	the walls	
517	9	the walls	
568	4	the walls	
125. Sentence	Head	Text	Context
99	18 (gov)	a lofty tower	
101	13	the tower	
193	8	its tower	
480	17	the tower	
564	10	the tower	
623	7	the tower	
126. Sentence	Head	Text	Context
100	12 (gov)	Gondor	
421	16	Gondor	
421	28	him	
127. Sentence	Head	Text	Context
100	22 (gov)	the hands of giants	
607	22	their hands	
128. Sentence	Head	Text	Context
101	2 (gov)	The Hornburg it was called , for a trumpet sounded upon the tower	
102	14	the Hornburg	
158	35	the Hornburg	
189	19	the Hornburg	
192	12	the Hornburg	
192	12	Hornburg	
197	20	the Hornburg	
228	17	the Hornburg	
364	8	the Hornburg	
364	8	Hornburg	
366	1	he	
397	3	the Hornburg	
426	12	the Hornburg	
426	12	Hornburg	
443	17	the Hornburg	
476	13	the Hornburg	
503	10	the Hornburg	
504	6	the Hornburg	
552	7	the Hornburg	
129. Sentence	Head	Text	Context
101	22 (gov)	armies long-forgotten	
205	19	armies	
130. Sentence	Head	Text	Context
195	3 (gov)	The Deeping Wall	
102	2	A wall	
103	2	it by a wide culvert the Deeping-stream passed out	
104	7	it	
107	17	the wall	
193	5	the Deeping Wall	
193	7	its	
193	12	it	
197	32	the wall	
198	9	the wall	
252	10	the Deeping Wall	
266	9	the Deeping Wall	
271	9	the wall	
274	16	the wall	
328	9	the wall	
339	4	the Deeping Wall	
340	6	its	
344	3	the wall	
347	24	the wall	
350	30	the wall	
353	4	the wall	
359	6	the wall	
385	13	the wall	
432	25	the wall	
439	3	the wall	
439	7	the wall	
460	11	the wall	
484	3	The Deeping Wall	
496	13	the Wall	
548	10	the wall	
557	19	the wall	
131. Sentence	Head	Text	Context
103	8 (gov)	the Deeping-stream passed out	
383	3	the Deeping-stream	
383	5	swollen by the rain	
383	14	its	
384	1	It	
432	5	the Deeping-stream	
132. Sentence	Head	Text	Context
104	6 (gov)	the Hornrock it wound , and flowed then in a gully through the midst of a wide green gore	
105	2	it	
133. Sentence	Head	Text	Context
104	18 (gov)	the midst of a wide green	
260	15	their midst	
134. Sentence	Head	Text	Context
240	18 (gov)	the Dike	
104	35	Dike	
153	8	Dike	
155	10	the Dike	
158	16	the Dike	
168	27	the Dike	
204	13	the dike	
225	4	the Dike	
232	12	the Dike	
241	9	the Dike	
591	16	the great Dike	
600	3	the Dike	
600	3	Dike	
602	12	the Dike	
624	7	the Dike	
135. Sentence	Head	Text	Context
113	5 (gov)	Erkenbrand	
106	9	Gate Erkenbrand	
106	11	master of Westfold on the borders of the Mark	
107	13	he	
114	5	he	
114	10	he	
114	18	he	
124	25	Erkenbrand	
167	8	Erkenbrand	
170	4	Erkenbrand	
171	5	he	
172	2	he	
173	4	he	
174	8	him	
175	4	he	
176	1	He	
176	5	a mighty man	
177	2	him	
178	6	him	
611	1	Erkenbrand !	
613	1	Erkenbrand !	
625	6	Erkenbrand , lord of Westfold	
625	6	Erkenbrand	
625	8	lord of Westfold	
136. Sentence	Head	Text	Context
108	8 (gov)	the low valley before the mouth of the Coomb	
110	14	the valley	
222	5	the valley	
243	5	the valley	
336	21	the valley	
399	22	the valley	
556	44	the valley	
589	18	the valley	
137. Sentence	Head	Text	Context
569	3 (gov)	the hornblasts	
108	19	hornblasts	
108	23	their	
569	14	they	
138. Sentence	Head	Text	Context
108	24 (gov)	their scouts that went in front	
174	2	Our scouts	
139. Sentence	Head	Text	Context
109	5 (gov)	the darkness arrows	
245	1	Arrows	
250	16	arrows	
302	1	Arrows	
140. Sentence	Head	Text	Context
250	3 (gov)	the Orcs	
110	21	Orcs	
121	16	Orcs	
138	10	Orcs	
232	14	Orcs	
233	6	them	
234	2	they	
235	5	them	
301	6	Orcs	
302	10	them	
343	15	Orcs	
343	18	them	
349	1	Orcs	
350	2	they	
351	2	they	
359	2	The Orcs	
365	2	The Orcs	
371	10	the Orcs	
371	14	them	
452	4	the Orcs , yelling , with their long arms stretched out to seize him	
452	4	the Orcs	
452	4	Orcs	
452	9	their	
495	3	the Orcs	
496	1	They	
496	10	they	
497	2	they	
497	10	they	
521	5	the Orcs	
525	2	The Orcs	
528	1	they	
557	3	the Orcs	
562	10	the Orcs about it	
562	23	them	
566	4	the Orcs	
629	2	The Orcs	
630	10	they	
631	2	they	
141. Sentence	Head	Text	Context
110	3 (gov)	a scout	
111	17	the scout	
126	8	the scout	
127	1	He that flies counts every foeman twice	
142. Sentence	Head	Text	Context
110	9 (gov)	wolf-riders	
111	11	they	
143. Sentence	Head	Text	Context
110	21 (gov)	Orcs and wild men	
301	6	Orcs and Men	
144. Sentence	Head	Text	Context
111	1 (gov)	We	
111	6	our	
112	2	we	
145. Sentence	Head	Text	Context
111	7 (gov)	our folk lying slain as they fled thither	
148	4	my folk	
146. Sentence	Head	Text	Context
119	1 (gov)	Some	
119	3	he	
120	5	he	
147. Sentence	Head	Text	Context
121	1 (gov)	Some	
122	1	It	
148. Sentence	Head	Text	Context
364	3 (gov)	the Old	
123	10	the old	
149. Sentence	Head	Text	Context
124	5 (gov)	we	
127	37	we	
128	3	us	
129	2	us	
129	11	us	
150. Sentence	Head	Text	Context
124	9 (gov)	no better choice than to go on , as Gandalf said	
124	29	no	
486	1	No	
151. Sentence	Head	Text	Context
125	8 (gov)	the host that comes from the North	
125	5	great	
127	33	great as all	
152. Sentence	Head	Text	Context
127	25 (gov)	the main strength of the enemy	
193	19	the strength	
153. Sentence	Head	Text	Context
127	28 (gov)	the enemy	
137	6	the enemy	
165	2	The enemy	
174	12	the enemy	
230	2	The enemy	
252	2	The enemy	
336	2	The enemy before them	
344	28	the enemy	
347	21	the enemy	
398	17	no enemy	
400	10	he	
445	20	the enemy	
460	15	the enemy	
488	9	the enemy	
522	16	the enemy	
523	2	he	
523	5	he	
524	2	he	
524	4	his	
552	2	No enemy	
583	20	the enemy	
154. Sentence	Head	Text	Context
182	5 (gov)	the caves of the Deep	
130	3	caves in Helm s Deep where hundreds may lie hid	
155. Sentence	Head	Text	Context
130	9 (gov)	hundreds	
241	1	Hundreds and hundreds	
156. Sentence	Head	Text	Context
130	16 (gov)	secret ways	
131	5	secret ways	
157. Sentence	Head	Text	Context
133	6 (gov)	our defence	
193	27	the defence	
350	25	the defence	
440	2	The defence	
158. Sentence	Head	Text	Context
133	5 (gov)	our	
134	2	us	
159. Sentence	Head	Text	Context
136	5 (gov)	the dark night	
323	9	the night	
160. Sentence	Head	Text	Context
136	6 (gov)	they	
136	16	their	
137	1	They	
137	8	them	
138	4	they	
138	13	they	
161. Sentence	Head	Text	Context
139	13 (gov)	the coming of the king	
140	7	them	
141	2	they	
142	1	They	
142	10	they	
143	2	they	
146	1	They	
146	9	they	
146	13	they	
162. Sentence	Head	Text	Context
139	25 (gov)	the leader of our enemies , Saruman	
139	34	he	
163. Sentence	Head	Text	Context
139	28 (gov)	our enemies	
451	4	his enemies	
556	26	his enemies	
164. Sentence	Head	Text	Context
141	9 (gov)	the dark	
141	12	the sound of harsh singing	
165. Sentence	Head	Text	Context
143	7 (gov)	countless points of fiery light	
143	4	torches , countless points of fiery light	
143	4	torches	
224	2	Their torches	
235	9	torches	
166. Sentence	Head	Text	Context
144	6 (gov)	a larger blaze	
145	1	It	
167. Sentence	Head	Text	Context
147	5 (gov)	a rich vale	
185	12	the vale	
481	16	the vale	
168. Sentence	Head	Text	Context
149	7 (gov)	we	
149	12	them like a storm out of the mountains	
152	1	We	
154	2	we	
155	3	we	
157	4	our	
157	10	we	
169. Sentence	Head	Text	Context
149	15 (gov)	a storm	
344	16	a storm	
170. Sentence	Head	Text	Context
153	20 (gov)	two	
260	18	two	
264	14	two	
276	2	two	
312	1	Two	
326	1	Two	
329	1	Two	
600	12	two	
171. Sentence	Head	Text	Context
155	1 (gov)	Nay	
477	1	Nay	
172. Sentence	Head	Text	Context
157	3 (gov)	the breach our rearguard must stand	
158	13	the breach	
158	30	it	
166	6	the breach	
226	12	the breach	
241	13	the breach	
336	24	the breach	
438	10	the breach	
173. Sentence	Head	Text	Context
158	20 (gov)	the stream from above	
188	7	the stream	
301	14	the stream	
349	12	the stream	
174. Sentence	Head	Text	Context
160	6 (gov)	a sentinel	
163	10	the sentinel	
175. Sentence	Head	Text	Context
162	4 (gov)	Eomer son of Eomund	
23	2	me	
25	1	I	
26	23	I	
27	9	my	
55	5	me	
57	1	I	
63	2	me	
65	3	me	
66	1	I	
66	5	I	
77	1	I	
78	4	me	
79	27	I	
80	2	me	
90	9	myself	
90	11	I	
90	15	I	
123	2	I	
123	6	my	
127	10	I	
127	18	I	
139	6	I	
148	3	my	
151	3	me	
162	1	I , Eomer son of Eomund	
162	1	I	
169	12	I	
169	21	my son	
169	20	my	
173	1	I	
175	1	I	
200	5	my	
201	2	my	
204	1	I	
204	5	my	
205	2	me	
205	12	I	
206	1	I	
208	1	I	
208	9	I	
209	4	me	
209	9	I	
210	1	I	
211	5	I	
217	1	I	
217	10	I	
219	2	my	
219	7	my	
220	2	me	
220	17	me	
316	10	I	
318	1	I	
321	1	I	
321	13	I	
321	24	me	
321	27	I	
322	1	I	
324	2	I	
325	3	I	
325	10	I	
331	1	I	
331	8	I	
332	2	I	
332	4	my	
376	2	my	
381	2	I	
381	6	I	
393	2	my	
403	8	I	
408	1	I	
408	22	my	
410	1	I	
425	7	me	
456	5	my	
459	1	I	
460	1	I	
468	4	my	
469	2	I	
470	1	I	
470	8	my	
472	3	I	
473	1	I	
474	9	I	
478	1	I	
479	11	I	
489	7	I	
499	1	I	
500	2	I	
500	13	my	
500	20	I	
501	2	I	
504	18	my	
507	2	I	
507	15	I	
511	2	I	
512	8	my	
513	5	I	
513	15	I	
514	5	me	
516	1	I	
540	1	I	
551	1	I	
621	1	I	
176. Sentence	Head	Text	Context
163	4 (gov)	good tidings beyond hope	
163	1	This	
554	10	tidings	
177. Sentence	Head	Text	Context
165	6 (gov)	your heels	
308	10	heels	
178. Sentence	Head	Text	Context
167	1 (gov)	They	
167	5	their	
179. Sentence	Head	Text	Context
168	6 (gov)	thousand	
607	12	thousand	
180. Sentence	Head	Text	Context
168	14 (gov)	Gamling , an old man , the leader of those that watched the Dike	
168	14	Gamling	
168	18	an old man , the leader of those that watched the Dike	
168	18	an old man	
168	21	the leader of those that watched the Dike	
182	27	Gamling	
186	22	Gamling	
377	8	Gamling	
402	8	Gamling , who had now climbed up beside him	
402	8	Gamling	
402	16	him	
405	29	Gamling	
409	13	Gamling	
479	1	Gamling	
479	4	him	
181. Sentence	Head	Text	Context
168	23 (gov)	those that watched the Dike	
169	4	them	
497	14	those that are inside	
182. Sentence	Head	Text	Context
171	17 (gov)	the best Riders of Westfold	
187	5	his Riders	
183. Sentence	Head	Text	Context
174	1 (gov)	Our	
174	18	us	
184. Sentence	Head	Text	Context
174	6 (gov)	no news of him	
482	4	the news	
185. Sentence	Head	Text	Context
178	2 (gov)	we	
179	1	We	
179	5	our	
181	1	We	
181	7	we	
182	2	us in the caves of the Deep	
186. Sentence	Head	Text	Context
182	22 (gov)	children and women	
183	11	their	
185	1	They	
186	2	they	
186	14	they	
187. Sentence	Head	Text	Context
183	9 (gov)	many beasts	
184	1	That	
188. Sentence	Head	Text	Context
187	2 (gov)	The king and his Riders	
188	8	they	
189	5	they	
189	7	their	
190	2	they	
189. Sentence	Head	Text	Context
188	3 (gov)	the causeway that crossed the stream	
252	15	the causeway	
300	5	the causeway	
582	10	the causeway	
190. Sentence	Head	Text	Context
189	8 (gov)	their horses	
194	2	The horses	
352	15	the horses	
595	7	their horses	
191. Sentence	Head	Text	Context
189	11 (gov)	the ramp	
228	11	the ramp	
252	18	the ramp that led up to the Hornburg-gates	
192. Sentence	Head	Text	Context
189	16 (gov)	the gates of the Hornburg	
256	13	the gates	
262	4	the gates	
267	28	the gates	
290	10	the gates	
295	14	the gates	
304	18	the gates	
338	5	the gates	
398	2	Its gates	
582	4	the gates	
193. Sentence	Head	Text	Context
190	13 (gov)	now	
325	2	now	
447	21	now	
569	11	now	
194. Sentence	Head	Text	Context
192	21 (gov)	the Westfold-men	
382	22	the Westfold-men	
195. Sentence	Head	Text	Context
193	25 (gov)	here the defence seemed more doubtful , if the assault were determined	
196	1	Here and there	
196	1	Here	
196	5	clefts in the stone through which men could shoot	
511	6	here	
196. Sentence	Head	Text	Context
193	34 (gov)	the assault	
388	10	the assault , since the attempt to break in through the culvert	
388	10	the assault	
517	27	the assault	
197. Sentence	Head	Text	Context
195	5 (gov)	twenty	
332	6	twenty	
198. Sentence	Head	Text	Context
195	6 (gov)	twenty feet	
204	6	my feet	
307	17	their feet	
314	5	his feet	
340	7	its feet	
375	13	his feet	
436	23	our feet	
199. Sentence	Head	Text	Context
301	8 (gov)	Men	
195	14	four men	
196	11	men	
197	63	their	
197	70	they	
225	14	men	
341	12	men	
341	15	them	
341	18	them	
404	8	men	
411	7	men	
413	1	They	
413	6	they	
413	16	them	
415	1	they	
416	4	their	
426	15	men	
478	6	men about him	
487	5	your men	
513	8	men	
517	20	the men	
568	5	men	
200. Sentence	Head	Text	Context
195	20 (gov)	the top , sheltered by a parapet over which only a tall man could look	
195	20	the top	
195	22	sheltered by a parapet over which only a tall man could look	
197	69	the top	
308	22	top of him	
201. Sentence	Head	Text	Context
195	25 (gov)	a parapet over which only a tall man could look	
199	6	the parapet	
341	9	the parapet	
202. Sentence	Head	Text	Context
197	2 (gov)	This battlement	
197	41	it	
197	50	it	
203. Sentence	Head	Text	Context
197	8 (gov)	a stair running down from a door in the outer court of the Hornburg	
370	8	the stair	
445	31	the stair	
447	35	the stair	
450	7	the stair	
454	17	the stair	
204. Sentence	Head	Text	Context
197	17 (gov)	the outer court of the Hornburg	
271	21	the outer court	
205. Sentence	Head	Text	Context
271	14 (gov)	the steps	
197	25	steps	
206. Sentence	Head	Text	Context
197	48 (gov)	the great stones of it	
200	15	the stones	
245	19	the stones	
257	19	stones	
302	8	the stones	
315	16	stones	
519	10	the stones	
207. Sentence	Head	Text	Context
470	6 (gov)	Master Gimli	
198	1	Gimli	
209	6	Gimli	
214	8	Gimli	
316	15	Gimli son of Gloin	
316	14	Gimli	
317	1	he	
321	10	Gimli	
327	2	Gimli	
327	5	his	
328	1	He	
328	5	his	
374	2	Gimli	
375	1	He	
375	12	his	
380	15	Gimli	
382	18	Gimli	
384	8	Gimli	
386	1	He	
387	5	his	
390	2	Gimli	
458	3	Gimli	
460	4	him	
471	2	he	
471	9	he	
208. Sentence	Head	Text	Context
200	10 (gov)	the dwarf	
323	15	the Dwarf	
479	8	the dwarf	
209. Sentence	Head	Text	Context
201	3 (gov)	my heart	
504	19	my heart	
210. Sentence	Head	Text	Context
201	6 (gov)	we	
204	8	we	
211. Sentence	Head	Text	Context
205	4 (gov)	a year	
206	5	it	
212. Sentence	Head	Text	Context
205	7 (gov)	a hundred of my kin	
211	9	hundred	
438	19	hundred	
213. Sentence	Head	Text	Context
205	17 (gov)	a place that armies would break upon like water	
208	6	this place	
208	12	it	
264	20	his place	
214. Sentence	Head	Text	Context
207	5 (gov)	a dwarf	
207	2	you	
467	11	a dwarf	
215. Sentence	Head	Text	Context
207	8 (gov)	dwarves	
378	1	Dwarves	
216. Sentence	Head	Text	Context
209	2 (gov)	you	
209	4	me , Gimli	
217. Sentence	Head	Text	Context
209	24 (gov)	your hard axe	
219	3	my axe	
218. Sentence	Head	Text	Context
211	3 (gov)	even more	
210	5	more of your kin among us	
336	15	still more	
219. Sentence	Head	Text	Context
210	10 (gov)	us	
212	1	We	
220. Sentence	Head	Text	Context
211	11 (gov)	a hundred good archers of Mirkwood	
212	4	them	
221. Sentence	Head	Text	Context
213	2 (gov)	The Rohirrim	
214	1	It	
215	2	it	
215	4	time for sleep	
217	6	it	
222. Sentence	Head	Text	Context
213	5 (gov)	good bowmen	
213	7	their	
223. Sentence	Head	Text	Context
223	2 (gov)	The hosts of Isengard	
339	6	the hosts of Isengard	
582	19	the hosts of Isengard	
622	2	The hosts of Isengard	
224. Sentence	Head	Text	Context
225	12 (gov)	the fierce battlecries of men	
227	2	they	
225. Sentence	Head	Text	Context
228	7 (gov)	the field	
500	17	the field	
226. Sentence	Head	Text	Context
232	1 (gov)	We	
232	6	we	
235	2	we	
227. Sentence	Head	Text	Context
234	6 (gov)	the bank at many points , thick as marching ants	
236	1	It	
228. Sentence	Head	Text	Context
240	4 (gov)	a staring moment	
240	24	it	
229. Sentence	Head	Text	Context
240	6 (gov)	the watchers on the walls	
240	15	them	
230. Sentence	Head	Text	Context
245	5 (gov)	the rain	
383	8	the rain	
231. Sentence	Head	Text	Context
245	10 (gov)	the battlements	
250	24	the battlements	
438	25	the battlements	
232. Sentence	Head	Text	Context
271	24 (gov)	the Rock	
248	12	rock and wall	
256	7	the rock	
274	23	the Rock	
337	5	the Rock	
370	11	the Rock	
396	14	the Rock	
443	11	the Rock	
477	9	the Rock	
484	23	the Rock	
492	15	the rock	
563	5	the Rock	
584	11	the Rock	
233. Sentence	Head	Text	Context
249	5 (gov)	the lightning	
255	2	The lightning	
292	2	The lightning	
234. Sentence	Head	Text	Context
250	28 (gov)	the men of the Mark	
250	40	them	
235. Sentence	Head	Text	Context
253	11 (gov)	the wild men of the Dunland fells	
254	3	they	
254	8	they	
256	1	They	
256	9	they	
257	13	them	
258	1	They	
258	29	they	
283	12	the wild men	
556	33	the wild men	
628	3	The wild men	
628	6	their	
236. Sentence	Head	Text	Context
259	10 (gov)	roaring men	
260	1	They	
260	3	their	
260	7	them	
260	14	their	
260	16	they	
261	2	them	
275	11	their men	
237. Sentence	Head	Text	Context
260	5 (gov)	their great shields	
288	18	their shields	
346	20	their shields	
238. Sentence	Head	Text	Context
260	22 (gov)	mighty trees	
263	2	The trees	
288	7	the trees	
601	20	the trees	
631	10	the trees	
239. Sentence	Head	Text	Context
261	3 (gov)	them orc-archers crowded , sending a hail of darts against the bowmen on the walls	
262	1	They	
289	2	The orc-archers	
240. Sentence	Head	Text	Context
263	11 (gov)	the timbers	
296	15	their timbers	
241. Sentence	Head	Text	Context
264	9 (gov)	a stone	
321	31	a stone	
242. Sentence	Head	Text	Context
265	6 (gov)	the great rams	
267	12	the rams	
243. Sentence	Head	Text	Context
266	1 (gov)	Eomer and Aragorn	
267	1	They	
267	22	they	
275	2	Eomer and Aragorn	
275	10	their	
290	4	Eomer and Aragorn	
395	1	Eomer and Aragorn	
395	7	their	
244. Sentence	Head	Text	Context
407	6 (gov)	their voices	
267	6	voices	
245. Sentence	Head	Text	Context
267	25 (gov)	the peril of the gates	
555	6	your peril	
246. Sentence	Head	Text	Context
270	4 (gov)	the hour when we draw swords together	
270	1	This	
247. Sentence	Head	Text	Context
271	5 (gov)	they	
272	2	they	
272	4	they	
248. Sentence	Head	Text	Context
273	13 (gov)	the burg-wall	
273	25	it	
249. Sentence	Head	Text	Context
273	16 (gov)	the west	
604	20	the west	
250. Sentence	Head	Text	Context
274	12 (gov)	the great gate	
445	36	the gate	
562	5	the gate	
562	12	it	
562	33	it	
251. Sentence	Head	Text	Context
275	8 (gov)	the door , their men	
275	8	the door	
455	4	the door	
455	8	it	
252. Sentence	Head	Text	Context
276	3 (gov)	The two swords	
346	14	their swords	
395	8	their swords	
607	18	their swords	
253. Sentence	Head	Text	Context
347	12 (gov)	Anduril	
280	1	Anduril	
284	1	Anduril	
286	1	Anduril	
445	5	Anduril	
254. Sentence	Head	Text	Context
283	6 (gov)	they	
283	8	themselves	
255. Sentence	Head	Text	Context
288	3 (gov)	the rammers	
288	17	their	
288	27	they	
256. Sentence	Head	Text	Context
290	3 (gov)	a moment	
307	3	that moment	
308	18	a moment	
559	12	a moment	
257. Sentence	Head	Text	Context
291	7 (gov)	the distance	
562	30	the distance	
258. Sentence	Head	Text	Context
292	13 (gov)	the South	
343	27	the South	
259. Sentence	Head	Text	Context
295	1 (gov)	We	
298	2	we	
260. Sentence	Head	Text	Context
296	1 (gov)	Their	
296	14	their	
298	12	them	
261. Sentence	Head	Text	Context
304	1 (gov)	We	
304	8	we	
262. Sentence	Head	Text	Context
307	6 (gov)	some dozen Orcs that had lain motionless among the slain	
307	16	their	
308	3	themselves	
308	19	they	
263. Sentence	Head	Text	Context
309	22 (gov)	Baruk Khazad	
354	1	Khazad	
355	1	Khazad	
356	1	He	
264. Sentence	Head	Text	Context
311	2 (gov)	An axe	
327	6	his axe	
472	6	an axe	
265. Sentence	Head	Text	Context
314	14 (gov)	his aid	
379	4	your aid	
266. Sentence	Head	Text	Context
319	9 (gov)	the best company	
592	3	the company	
267. Sentence	Head	Text	Context
321	35 (gov)	your sword-play	
322	5	it	
268. Sentence	Head	Text	Context
333	7 (gov)	only a few leaves in a forest	
331	13	spent arrows	
333	2	that	
269. Sentence	Head	Text	Context
470	12 (gov)	thirty-nine	
332	5	my tale	
470	9	my tale	
270. Sentence	Head	Text	Context
333	10 (gov)	a forest	
597	20	a forest	
621	6	this forest	
271. Sentence	Head	Text	Context
334	10 (gov)	the sinking moon	
399	11	the moon	
272. Sentence	Head	Text	Context
335	9 (gov)	the Riders of the Mark	
336	4	them	
273. Sentence	Head	Text	Context
339	12 (gov)	a sea	
397	13	the sea	
274. Sentence	Head	Text	Context
343	9 (gov)	many	
343	12	them	
275. Sentence	Head	Text	Context
345	2 (gov)	The men of Rohan	
346	2	their	
346	13	their	
346	19	their	
347	7	them	
276. Sentence	Head	Text	Context
347	2 (gov)	Three times	
347	11	three times	
277. Sentence	Head	Text	Context
349	8 (gov)	the culvert through which the stream flowed out	
382	30	the culvert	
388	20	the culvert	
436	6	the culvert	
278. Sentence	Head	Text	Context
357	1 (gov)	Ai-oi !	
358	1	he	
360	1	Ai-oi !	
279. Sentence	Head	Text	Context
369	2 (gov)	Forth Helmingas !	
370	1	he	
370	4	he	
370	18	his	
280. Sentence	Head	Text	Context
370	14 (gov)	many men of Westfold	
371	1	Their	
372	3	they	
281. Sentence	Head	Text	Context
372	35 (gov)	the hidden caves	
441	30	the caves	
464	11	the caves	
471	7	the caves	
488	14	the caves	
497	8	the caves	
583	15	the caves	
282. Sentence	Head	Text	Context
373	1 (gov)	Twenty-one	
389	1	Twenty-one	
283. Sentence	Head	Text	Context
393	7 (gov)	two dozen	
376	3	my count	
393	3	my count	
394	1	It	
471	13	your count	
284. Sentence	Head	Text	Context
377	1 (gov)	We	
379	2	us	
380	1	We	
380	11	our	
285. Sentence	Head	Text	Context
380	12 (gov)	our finger-nails	
382	1	They	
382	10	they	
286. Sentence	Head	Text	Context
382	27 (gov)	the inner end of the culvert	
510	2	The end	
287. Sentence	Head	Text	Context
383	16 (gov)	its choked path	
591	12	his path	
288. Sentence	Head	Text	Context
397	10 (gov)	an island	
398	1	Its	
289. Sentence	Head	Text	Context
398	10 (gov)	over the barricade of beams and stones within no enemy	
560	2	The barricade	
290. Sentence	Head	Text	Context
400	4 (gov)	a night	
400	1	This	
474	4	this night	
291. Sentence	Head	Text	Context
404	2 (gov)	Yet dawn	
404	6	the hope of men	
468	1	That	
468	5	my hope	
540	7	the dawn	
541	4	the dawn	
545	4	the dawn	
562	46	the dawn	
292. Sentence	Head	Text	Context
405	3 (gov)	these creatures of Isengard , these half-orcs and goblin-men that the foul craft of Saruman has bred	
405	20	they	
293. Sentence	Head	Text	Context
406	2 (gov)	neither	
407	5	their	
408	3	them	
408	9	they	
408	13	the scream of birds and the bellowing of beasts to my ears	
294. Sentence	Head	Text	Context
408	23 (gov)	my ears	
566	13	their ears	
295. Sentence	Head	Text	Context
411	5 (gov)	an ancient speech of men	
409	6	cry in the Dunland tongue	
411	1	It	
296. Sentence	Head	Text	Context
413	3 (gov)	us	
413	11	our	
416	1	We	
297. Sentence	Head	Text	Context
419	4 (gov)	the robbers	
420	3	they	
421	8	they	
421	10	their	
423	1	They	
424	1	They	
424	18	they	
424	19	themselves	
298. Sentence	Head	Text	Context
428	5 (gov)	it , and hope	
430	3	they	
299. Sentence	Head	Text	Context
432	10 (gov)	foaming	
432	12	they	
300. Sentence	Head	Text	Context
432	20 (gov)	a gaping hole	
532	7	his hole	
301. Sentence	Head	Text	Context
436	20 (gov)	Orthanc	
495	9	Orthanc	
302. Sentence	Head	Text	Context
436	1 (gov)	They	
436	14	they	
303. Sentence	Head	Text	Context
436	10 (gov)	we	
436	22	our	
304. Sentence	Head	Text	Context
437	1 (gov)	Elendil , Elendil !	
437	1	Elendil	
437	3	Elendil	
438	1	he	
438	5	he	
438	15	he	
577	8	Elendil	
305. Sentence	Head	Text	Context
438	20 (gov)	a hundred ladders	
520	6	ladders	
306. Sentence	Head	Text	Context
441	1 (gov)	Some of the Riders	
441	20	they	
307. Sentence	Head	Text	Context
442	1 (gov)	Others	
442	3	their	
308. Sentence	Head	Text	Context
442	8 (gov)	the citadel	
475	6	the citadel	
309. Sentence	Head	Text	Context
443	14 (gov)	the rear-gate of the Hornburg	
445	2	his	
310. Sentence	Head	Text	Context
453	2 (gov)	The foremost	
454	21	them	
311. Sentence	Head	Text	Context
454	10 (gov)	the outer wall	
521	12	the outer wall	
312. Sentence	Head	Text	Context
457	13 (gov)	we	
457	17	us	
460	17	us	
313. Sentence	Head	Text	Context
460	8 (gov)	the ground behind the wall	
462	1	That	
314. Sentence	Head	Text	Context
464	2 (gov)	us	
466	3	we	
315. Sentence	Head	Text	Context
474	13 (gov)	better light for shooting	
578	1	Light	
593	1	Light	
316. Sentence	Head	Text	Context
479	4 (gov)	him , and the dwarf	
479	16	them	
317. Sentence	Head	Text	Context
480	7 (gov)	the inner court	
512	14	the inner court	
318. Sentence	Head	Text	Context
487	12 (gov)	some	
487	18	them	
319. Sentence	Head	Text	Context
488	2 (gov)	the narrows	
488	4	they	
489	3	they	
320. Sentence	Head	Text	Context
490	1 (gov)	More than we .	
491	4	it	
321. Sentence	Head	Text	Context
493	8 (gov)	determined men	
494	1	They	
500	14	my men	
322. Sentence	Head	Text	Context
496	5 (gov)	a blasting fire	
496	9	it	
323. Sentence	Head	Text	Context
498	3 (gov)	we	
498	7	our	
498	10	our	
324. Sentence	Head	Text	Context
500	7 (gov)	a spear in rest	
576	15	his spear	
325. Sentence	Head	Text	Context
503	2 (gov)	More hope	
504	1	It	
326. Sentence	Head	Text	Context
507	6 (gov)	the strength of Isengard	
508	9	it	
327. Sentence	Head	Text	Context
507	21 (gov)	ridden	
507	25	it	
328. Sentence	Head	Text	Context
514	8 (gov)	son of Arathorn	
517	2	his	
517	5	he	
329. Sentence	Head	Text	Context
515	2 (gov)	we	
515	26	us	
330. Sentence	Head	Text	Context
521	17 (gov)	the defenders	
521	19	them	
331. Sentence	Head	Text	Context
524	6 (gov)	his empty hand	
524	8	palm outward in token of parley	
332. Sentence	Head	Text	Context
529	7 (gov)	us	
531	1	We	
532	1	We	
			
